Place,Name,Sex,Event,Division,WeightClassKg,Equipment,BirthYear,Team,State,BodyweightKg,Squat1Kg,Squat2Kg,Squat3Kg,Best3SquatKg,Bench1Kg,Bench2Kg,Bench3Kg,Best3BenchKg,Deadlift1Kg,Deadlift2Kg,Deadlift3Kg,Best3DeadliftKg,TotalKg,Age,BirthDate
1,JD Johnson,M,B,MR-O,140+,Raw,1991,,CA,152.5,,,,,-152.5,157.5,167.5,167.5,,,,,167.5,,
1,Kali Garcia,F,D,FR-Y1,52,Raw,2013,,TX,48.7,,,,,,,,,32.5,45,47.5,47.5,47.5,,
1,Keegan Garcia,M,D,M-T1,125,Single-ply,2006,,TX,121.6,,,,,,,,,265,275,,275,275,,
1,Gabriela Parra,F,SBD,F-C,56,Single-ply,2003,Roadrunner Powerlifting,TX,55.6,-105,105,115,115,52.5,57.5,-60,57.5,97.5,105,112.5,112.5,285,,
1,Rian Garza,F,SBD,F-O,100+,Single-ply,2003,,TX,106.5,160,175,182.5,182.5,62.5,72.5,-82.5,72.5,150,155,-165,155,410,,
1,Ana De La Paz,F,SBD,FR-C,60,Raw,2002,,TX,58.2,100,110,-122.5,110,50,55,-57.5,55,100,110,120,120,285,,
1,Lyzzette Gonzalez,F,SBD,FR-C,67.5,Raw,1996,,TX,62.1,90,100,-105,100,52.5,57.5,-60,57.5,95,105,-115,105,262.5,,
1,Lucia Creeden,F,SBD,FR-Jr,60,Raw,2001,,TX,58.1,132.5,137.5,145,145,67.5,-70,70,70,135,142.5,150,150,365,,
1,Shauna Flach,F,SBD,FR-Jr,67.5,Raw,2001,,TX,66.8,115,120,125,125,65,67.5,-70,67.5,145,150,-155,150,342.5,,
DQ,Cara DeHart,F,SBD,FR-M1a,100+,Raw,1982,,TX,107.3,-120,-130,-130,,72.5,-77.5,80,80,150,160,-165,160,,,
1,Thao Doan,F,SBD,FR-O,52,Raw,1997,,TX,49.4,102.5,110,-115,110,67.5,72.5,77.5,77.5,112.5,120,127.5,127.5,315,,
2,Holly Quinn,F,SBD,FR-O,52,Raw,1997,,IL,51.8,97.5,-102.5,102.5,102.5,50,52.5,55,55,97.5,102.5,-107.5,102.5,260,,
1,Sthefany Hoyos,F,SBD,FR-O,60,Raw,1996,,TX,58.4,130,-137.5,137.5,137.5,60,-65,-65,60,127.5,137.5,-142.5,137.5,335,,
1,Sarah Narvaiz,F,SBD,FR-O,75,Raw,1992,,TX,74,115,125,132.5,132.5,75,80,,80,157.5,170,-175,170,382.5,,
2,Lauren Martinez,F,SBD,FR-O,75,Raw,1987,,CA,71.7,117.5,125,132.5,132.5,70,75,80,80,125,132.5,142.5,142.5,355,,
3,Sheila Ludeke,F,SBD,FR-O,75,Raw,1988,,TX,74.1,107.5,115,117.5,117.5,67.5,72.5,75,75,122.5,132.5,-137.5,132.5,325,,
4,Mayra Gonzalez,F,SBD,FR-O,75,Raw,1991,,TX,72.9,97.5,102.5,107.5,107.5,67.5,72.5,-77.5,72.5,125,132.5,137.5,137.5,317.5,,
5,Joey Balaszi,F,SBD,FR-O,75,Raw,1995,,TX,69.9,92.5,97.5,107.5,107.5,45,-50,50,50,130,137.5,145,145,302.5,,
1,Angelina Lopez,F,SBD,FR-O,67.5,Raw,2002,,TX,66.3,115,122.5,127.5,127.5,55,57.5,-60,57.5,132.5,-142.5,-142.5,132.5,317.5,,
1,Jessica Guerrero,F,SBD,FR-O,82.5,Raw,1995,,TX,82,157.5,165,-172.5,165,67.5,72.5,75,75,180,190,-200,190,430,,
2,Selena Rios,F,SBD,FR-O,82.5,Raw,1996,,TX,79.2,130,135,140,140,57.5,-62.5,-62.5,57.5,145,152.5,-160,152.5,350,,
1,Sadie Shearrer,F,SBD,FR-T1,56,Raw,2006,,TX,55.6,60,65,-75,65,35,37.5,40,40,82.5,87.5,95,95,200,,
1,Stephanie Mendoza,F,SBD,FR-T3,52,Raw,2002,,TX,52,60,70,77.5,77.5,37.5,-45,-45,37.5,92.5,105,115,115,230,,
1,Angelina Lopez,F,SBD,FR-T3,67.5,Raw,2002,,TX,66.3,115,122.5,127.5,127.5,55,57.5,-60,57.5,132.5,-142.5,-142.5,132.5,317.5,,
1,Kali Garcia,F,SBD,FR-Y1,52,Raw,2013,,TX,48.7,15,20,22.5,22.5,15,17.5,-20,17.5,32.5,45,47.5,47.5,87.5,,
1,Alexus Valdez,F,SBD,F-T3,75,Single-ply,2004,,TX,72.2,165,175,182.5,182.5,92.5,97.5,102.5,102.5,165,170,175,175,460,,
1,Robert McDonald,M,SBD,MR-C,75,Raw,1999,,TX,72.4,192.5,-205,210,210,122.5,130,135,135,205,220,235,235,580,,
1,Logan Jones,M,SBD,MR-C,90,Raw,2001,,TX,87,220,235,247.5,247.5,140,147.5,150,150,260,275,287.5,287.5,685,,
2,Patrick Reyes,M,SBD,MR-C,90,Raw,2001,,TX,87.3,192.5,205,220,220,130,132.5,135,135,245,255,-265,255,610,,
3,Caleb Derusha,M,SBD,MR-C,90,Raw,2002,,TX,88.5,175,182.5,192.5,192.5,125,132.5,-135,132.5,210,217.5,230,230,555,,
1,Anthony Carter,M,SBD,MR-C,100,Raw,1996,,TX,90.8,187.5,197.5,210,210,147.5,155,160,160,215,227.5,-235,227.5,597.5,,
2,Matthew Dumas,M,SBD,MR-C,100,Raw,2003,Roadrunner Powerlifting,TX,91.7,25,,,25,100,110,-120,110,200,205,-215,205,340,,
1,Erik Fisk,M,SBD,MR-C,110,Raw,2000,,TX,105.7,220,232.5,242.5,242.5,127.5,132.5,137.5,137.5,215,225,235,235,615,,
2,Jacob Goodenow,M,SBD,MR-C,110,Raw,1998,,TX,105.6,177.5,190,210,210,117.5,125,137.5,137.5,162.5,177.5,187.5,187.5,535,,
1,Colton Perkins,M,SBD,MR-C,125,Raw,2002,Roadrunner Powerlifting,TX,120,185,190,195,195,135,142.5,145,145,190,200,210,210,550,,
1,Bryan Harwell,M,SBD,MR-C,82.5,Raw,2002,,TX,80.3,232.5,245,257.5,257.5,132.5,137.5,-145,137.5,260,275,287.5,287.5,682.5,,
2,Xavier Chavarria,M,SBD,MR-C,82.5,Raw,2002,Roadrunner Powerlifting,TX,76.7,227.5,235,-240,235,140,145,150,150,220,227.5,-235,227.5,612.5,,
3,Hector Morales,M,SBD,MR-C,82.5,Raw,1999,,TX,77.5,-110,120,-132.5,120,80,87.5,97.5,97.5,122.5,130,142.5,142.5,360,,
1,Christian Angeles,M,SBD,MR-Jr,75,Raw,1998,,TX,73.7,195,207.5,-215,207.5,120,127.5,132.5,132.5,227.5,242.5,255,255,595,,
1,Logan Jones,M,SBD,MR-Jr,90,Raw,2001,,TX,87,220,235,247.5,247.5,140,147.5,150,150,260,275,287.5,287.5,685,,
2,Lorenzo Rivas,M,SBD,MR-Jr,90,Raw,2001,,TX,88.3,220,227.5,-235,227.5,147.5,-160,-160,147.5,260,280,-295,280,655,,
3,Conner Sharp,M,SBD,MR-Jr,90,Raw,1999,,TX,86,215,227.5,-232.5,227.5,135,-140,-140,135,-245,245,257.5,257.5,620,,
1,Sean Ramirez,M,SBD,MR-Jr,100,Raw,2000,,TX,97.6,255,267.5,-272.5,267.5,155,-165,165,165,255,270,277.5,277.5,710,,
2,Adrian Ian Alvidrez,M,SBD,MR-Jr,100,Raw,2001,,TX,91.9,-230,230,237.5,237.5,-155,155,-167.5,155,272.5,-277.5,-277.5,272.5,665,,
1,Jacob Wilson,M,SBD,MR-Jr,110,Raw,1999,,TX,100.9,222.5,232.5,237.5,237.5,135,140,142.5,142.5,265,280,295,295,675,,
1,Kevin Nguyen #16,M,SBD,MR-Jr,125,Raw,1999,Barbelll Slayers,TX,122.3,310,332.5,347.5,347.5,200,210,215,215,305,330,345,345,907.5,,
2,Joe Fallwell,M,SBD,MR-Jr,125,Raw,1999,,TX,118.5,202.5,217.5,-230,217.5,145,152.5,160,160,255,270,282.5,282.5,660,,
1,Gilbert Ibarra,M,SBD,MR-Jr,140,Raw,1999,,TX,133,195,202.5,207.5,207.5,115,122.5,-127.5,122.5,210,225,232.5,232.5,562.5,,
1,Andrew Ferrel,M,SBD,MR-Jr,82.5,Raw,1998,,TX,80.9,200,210,217.5,217.5,140,150,155,155,220,240,247.5,247.5,620,,
2,Dylan Stokes,M,SBD,MR-Jr,82.5,Raw,2001,,TX,79.8,-225,-225,225,225,115,120,-130,120,227.5,240,-255,240,585,,
3,Jacob Trexler,M,SBD,MR-Jr,82.5,Raw,2002,,TX,79.4,170,182.5,192.5,192.5,145,152.5,160,160,202.5,-215,220,220,572.5,,
4,Jared Pearson,M,SBD,MR-Jr,82.5,Raw,2001,,TX,80.4,160,172.5,182.5,182.5,92.5,105,-107.5,105,172.5,185,187.5,187.5,475,,
1,Joe Lucio,M,SBD,MR-M4b,90,Raw,1947,,TX,87.1,120,130,-137.5,130,65,70,75,75,142.5,152.5,160,160,365,,
1,Eddie Suarez,M,SBD,MR-O,75,Raw,1994,,TX,69.8,200,215,-227.5,215,140,150,-155,150,235,250,-262.5,250,615,,
2,Christopher Bautista,M,SBD,MR-O,75,Raw,2000,,TX,74,202.5,-210,-210,202.5,130,135,-137.5,135,202.5,210,-215,210,547.5,,
3,Thomas Struxness,M,SBD,MR-O,75,Raw,1996,,TX,71.4,170,172.5,185,185,112.5,117.5,125,125,182.5,192.5,202.5,202.5,512.5,,
4,Nicholas Tankersley,M,SBD,MR-O,75,Raw,1988,,TX,72.2,160,170,-177.5,170,100,105,110,110,200,215,-230,215,495,,
5,Thomas Pineda,M,SBD,MR-O,75,Raw,1998,,TX,71.7,155,157.5,170,170,107.5,-112.5,112.5,112.5,180,190,205,205,487.5,,
6,Mike Acevedo,M,SBD,MR-O,75,Raw,2001,,TX,72.3,160,175,180,180,105,115,-125,115,165,175,185,185,480,,
1,Sergio Coronado,M,SBD,MR-O,90,Raw,1996,,TX,88.2,257.5,262.5,267.5,267.5,137.5,142.5,-145,142.5,242.5,250,257.5,257.5,667.5,,
2,James Martin #2,M,SBD,MR-O,90,Raw,1983,,TX,89,205,215,227.5,227.5,140,142.5,147.5,147.5,235,252.5,262.5,262.5,637.5,,
3,Aaron Bazan,M,SBD,MR-O,90,Raw,1990,,TX,87.7,217.5,227.5,-237.5,227.5,130,135,140,140,230,242.5,-252.5,242.5,610,,
4,Pablo Duran,M,SBD,MR-O,90,Raw,1998,,TX,87.6,182.5,195,202.5,202.5,152.5,160,-167.5,160,220,235,245,245,607.5,,
5,Tyler Peele,M,SBD,MR-O,90,Raw,1990,,TX,85.6,-192.5,192.5,-205,192.5,142.5,150,-157.5,150,212.5,227.5,242.5,242.5,585,,
6,Austin Turner #2,M,SBD,MR-O,90,Raw,1995,,TX,87.4,-202.5,202.5,210,210,145,-152.5,-152.5,145,212.5,220,227.5,227.5,582.5,,
1,Bryan McCasland,M,SBD,MR-O,100,Raw,1986,,TX,97.5,227.5,232.5,,232.5,175,-182.5,-182.5,175,242.5,252.5,260,260,667.5,,
2,Ben Gamble,M,SBD,MR-O,100,Raw,1988,,TX,92.4,205,215,222.5,222.5,-107.5,107.5,-117.5,107.5,222.5,232.5,242.5,242.5,572.5,,
1,JeQuille Lyles,M,SBD,MR-O,110,Raw,1990,,TX,106.1,245,257.5,265,265,170,175,-182.5,175,305,320,-325,320,760,,
2,Tristan Watson,M,SBD,MR-O,110,Raw,1997,,TX,102.7,215,225,230,230,160,165,-170,165,245,-250,,245,640,,
1,Kevin Nguyen #16,M,SBD,MR-O,125,Raw,1999,Barbelll Slayers,TX,122.3,310,332.5,347.5,347.5,200,210,215,215,305,330,345,345,907.5,,
2,Brian Grierson,M,SBD,MR-O,125,Raw,1996,,VA,113.6,225,237.5,245,245,130,137.5,-142.5,137.5,257.5,275,-282.5,275,657.5,,
3,Fernando Echeona,M,SBD,MR-O,125,Raw,1996,,TX,121.3,205,215,227.5,227.5,125,130,137.5,137.5,217.5,227.5,237.5,237.5,602.5,,
4,Abiel Perez,M,SBD,MR-O,125,Raw,1993,,TX,118.6,210,220,222.5,222.5,115,120,122.5,122.5,212.5,225,230,230,575,,
5,Jonryan Torres,M,SBD,MR-O,125,Raw,1991,,TX,121.7,182.5,185,187.5,187.5,102.5,107.5,-112.5,107.5,175,180,187.5,187.5,482.5,,
1,Jonathan Avril,M,SBD,MR-O,140,Raw,1993,,TX,134.7,287.5,307.5,320,320,192.5,205,-212.5,205,300,325,337.5,337.5,862.5,,
1,Alex Hong,M,SBD,MR-O,82.5,Raw,1998,,CA,82.3,245,255,,255,162.5,167.5,-172.5,167.5,260,,,260,682.5,,
2,Ethan Valdes,M,SBD,MR-O,82.5,Raw,1992,,TX,80.1,195,-202.5,202.5,202.5,132.5,140,-145,140,212.5,225,232.5,232.5,575,,
3,Rogelio Hernandez,M,SBD,MR-O,82.5,Raw,1992,,TX,80.1,197.5,205,212.5,212.5,127.5,132.5,-137.5,132.5,210,-222.5,-225,210,555,,
4,Jesse Drobshoff,M,SBD,MR-O,82.5,Raw,1994,,TX,80.9,-167.5,175,182.5,182.5,120,127.5,135,135,210,225,235,235,552.5,,
5,Jorge Davila,M,SBD,MR-O,82.5,Raw,1996,,TX,81.3,190,200,205,205,117.5,125,-132.5,125,192.5,207.5,-220,207.5,537.5,,
6,Jared Pearson,M,SBD,MR-O,82.5,Raw,2001,,TX,80.4,160,172.5,182.5,182.5,92.5,105,-107.5,105,172.5,185,187.5,187.5,475,,
1,Adam Delgado,M,SBD,MR-PF,90,Raw,1986,,TX,88.1,150,165,180,180,145,152.5,162.5,162.5,187.5,205,227.5,227.5,570,,
1,Fernando Echeona,M,SBD,MR-PF,125,Raw,1996,,TX,121.3,205,215,227.5,227.5,125,130,137.5,137.5,217.5,227.5,237.5,237.5,602.5,,
1,Spencer Gershon,M,SBD,MR-T2,90,Raw,2005,,TX,82.8,120,122.5,127.5,127.5,92.5,97.5,102.5,102.5,155,165,172.5,172.5,402.5,,
1,Fisher Kirby,M,SBD,MR-T2,100,Raw,2004,,TX,91.8,-177.5,177.5,-187.5,177.5,132.5,-137.5,-137.5,132.5,170,175,180,180,490,,
1,Elias Campos,M,SBD,MR-T2,110,Raw,2005,,TX,108.5,185,200,-215,200,100,110,120,120,190,200,225,225,545,,
1,Jackson Bookout,M,SBD,MR-T2,67.5,Raw,2005,,TX,64.2,130,135,140,140,80,85,90,90,130,140,147.5,147.5,377.5,,
1,JoAnthony Mendoza,M,SBD,MR-T2,82.5,Raw,2004,,TX,77.6,170,177.5,185,185,107.5,117.5,-120,117.5,185,205,-210,205,507.5,,
1,Robert Woertink,M,SBD,MR-T3,75,Raw,2003,,TX,73,157.5,-160,175,175,112.5,122.5,127.5,127.5,205,-215,215,215,517.5,,
2,Nico Diaz,M,SBD,MR-T3,75,Raw,2002,,TX,73,175,185,195,195,102.5,110,117.5,117.5,185,195,202.5,202.5,515,,
3,Zachary Garcez,M,SBD,MR-T3,75,Raw,2004,,TX,73.3,155,167.5,170,170,105,110,-115,110,190,-197.5,-205,190,470,,
1,Seth Chavez,M,SBD,MR-T3,90,Raw,2002,,TX,88.7,215,225,230,230,137.5,145,-152.5,145,215,-225,235,235,610,,
1,Christian Robison,M,SBD,MR-T3,100,Raw,2002,,TX,98.5,167.5,177.5,187.5,187.5,117.5,125,132.5,132.5,212.5,227.5,-240,227.5,547.5,,
1,Dehlay Salas,M,SBD,MR-Y3,52,Raw,2009,,TX,50.4,62.5,67.5,80,80,30,32.5,37.5,37.5,82.5,92.5,102.5,102.5,220,,
1,Marcos Salas Jr,M,SBD,MR-Y3,67.5,Raw,2008,,TX,67.1,105,120,135,135,60,-70,-70,60,137.5,160,162.5,162.5,357.5,,
DQ,Jayson Figueroa,M,SBD,M-T1,82.5,Single-ply,2006,,TX,80.7,185,215,,215,-140,140,147.5,147.5,182.5,192.5,200,200,,,
DQ,Jayson Figueroa,M,BD,M-T1,82.5,Single-ply,2006,,TX,80.7,,,,,-140,140,147.5,147.5,182.5,192.5,200,200,,,
