Division,WeightClassKg,Place,Name,Team,BodyweightKg,Best3SquatKg,Best3BenchKg,Best3DeadliftKg,TotalKg,Equipment,Event,Sex,BirthDate
Boys,51.71,1,Colton Harvell,Fairfield,44.91,108.86,49.9,124.74,283.5,Single-ply,SBD,M,
Boys,55.79,1,Tracy Johnson #7,Fairfield,53.98,122.47,65.77,142.88,331.12,Single-ply,SBD,M,
Boys,55.79,2,Minh Nguyen #11,Mabank,55.79,108.86,54.43,106.59,269.89,Single-ply,SBD,M,
Boys,59.87,1,Eli Castillo,Fairfield,59.42,183.7,104.33,183.7,471.74,Single-ply,SBD,M,
Boys,59.87,2,Sam Carter,Mabank,58.51,104.33,72.57,156.49,333.39,Single-ply,SBD,M,
Boys,59.87,3,Corbin Viduari,Fairfield,58.51,124.74,72.57,124.74,322.05,Single-ply,SBD,M,
Boys,67.13,1,Justus Savage,Fairfield,64.41,151.95,81.65,147.42,381.02,Single-ply,SBD,M,
Boys,67.13,2,Hunter Boswell,Mabank,64.41,151.95,70.31,147.42,369.68,Single-ply,SBD,M,
Boys,67.13,3,Kohl Burrows,Mabank,64.86,117.93,65.77,106.59,290.3,Single-ply,SBD,M,
Boys,74.84,1,Hayden Braswell,Fairfield,73.48,240.4,142.88,215.46,598.74,Single-ply,SBD,M,
Boys,74.84,2,Brayden May,Kerens,74.39,188.24,136.08,183.7,508.02,Single-ply,SBD,M,
Boys,74.84,3,Eric Escadedo,Fairfield,74.39,158.76,79.38,158.76,396.89,Single-ply,SBD,M,
Boys,74.84,4,Ashton Early,Mabank,74.84,138.35,90.72,142.88,371.95,Single-ply,SBD,M,
Boys,74.84,5,Michael DeMoss,Kerens,73.48,129.27,83.91,142.88,356.07,Single-ply,SBD,M,
Boys,82.1,1,Hayden Palmer,Kerens,82.1,201.85,136.08,199.58,537.51,Single-ply,SBD,M,
Boys,82.1,2,Kelton Carlson,Fairfield,80.74,204.12,108.86,165.56,478.54,Single-ply,SBD,M,
Boys,82.1,3,Kyler Schick,Fairfield,77.11,185.97,102.06,158.76,446.79,Single-ply,SBD,M,
Boys,82.1,4,Nathan Carruth,Mabank,76.66,147.42,83.91,181.44,412.77,Single-ply,SBD,M,
Boys,82.1,5,Gavin Whitley,Mabank,82.1,145.15,97.52,145.15,387.82,Single-ply,SBD,M,
Boys,82.1,6,Valencia Antonio,Mabank,78.93,136.08,90.72,138.35,365.14,Single-ply,SBD,M,
Boys,82.1,7,Randle Mabrey,Fairfield,77.11,147.42,70.31,129.27,347,Single-ply,SBD,M,
Boys,89.81,1,Braiden Barrett,Fairfield,86.18,249.48,154.22,233.6,637.3,Single-ply,SBD,M,
Boys,89.81,2,K'Vionne Davis,Malakoff,89.36,272.16,136.08,226.8,635.03,Single-ply,SBD,M,
Boys,89.81,3,Eli Martin,Fairfield,87.09,229.06,142.88,213.19,585.13,Single-ply,SBD,M,
Boys,89.81,4,Jalen Smith,Malakoff,86.64,204.12,117.93,201.85,523.9,Single-ply,SBD,M,
Boys,89.81,5,Wilson Basden,Fairfield,83.46,204.12,106.59,190.51,501.22,Single-ply,SBD,M,
Boys,89.81,6,Dorean Jordan,Kerens,83.91,204.12,97.52,199.58,501.22,Single-ply,SBD,M,
Boys,89.81,7,Damien Jackson,Malakoff,87.09,170.1,102.06,188.24,460.4,Single-ply,SBD,M,
Boys,89.81,8,Aaron Roden,Mabank,84.37,163.29,83.91,136.08,383.29,Single-ply,SBD,M,
Boys,89.81,9,Matthew Smith,Kerens,87.09,142.88,79.38,142.88,365.14,Single-ply,SBD,M,
Boys,99.79,1,Luke Martinez,Fairfield,92.53,238.14,138.35,215.46,591.94,Single-ply,SBD,M,
Boys,99.79,2,Samuel Marsters,Fairfield,94.8,215.46,142.88,192.78,551.11,Single-ply,SBD,M,
Boys,99.79,3,Landon Salinas,Fairfield,97.52,226.8,117.93,183.7,528.44,Single-ply,SBD,M,
Boys,99.79,4,Shawn Meadows,Malakoff,94.35,201.85,113.4,195.04,510.29,Single-ply,SBD,M,
Boys,99.79,5,Antonio Rodriguez,Kerens,93.89,197.31,129.27,181.44,508.02,Single-ply,SBD,M,
Boys,99.79,6,Patrick Crabtree,Kerens,99.34,190.51,124.74,181.44,496.68,Single-ply,SBD,M,
Boys,99.79,DQ,Trent Batchelor,Mabank,99.79,136.08,79.38,,,Single-ply,SBD,M,
Boys,99.79,DQ,Jose Morales,Malakoff,96.62,215.46,142.88,,,Single-ply,SBD,M,
Boys,109.77,1,Julio Roque,Fairfield,107.95,249.48,133.81,226.8,610.08,Single-ply,SBD,M,
Boys,109.77,2,Fernando Contreras,Malakoff,103.87,208.65,145.15,199.58,553.38,Single-ply,SBD,M,
Boys,109.77,3,River Bonds,Fairfield,106.59,206.38,145.15,195.04,546.58,Single-ply,SBD,M,
Boys,109.77,4,Dylon McGowan,Fairfield,102.97,204.12,120.2,204.12,528.44,Single-ply,SBD,M,
Boys,109.77,5,Travis McCalister,Malakoff,108.86,197.31,115.67,204.12,517.1,Single-ply,SBD,M,
Boys,109.77,6,Jesse Rodriguez,Malakoff,106.59,199.58,127.01,183.7,510.29,Single-ply,SBD,M,
Boys,109.77,7,Landon Hunsaker,Mabank,107.95,142.88,79.38,151.95,374.21,Single-ply,SBD,M,
Boys,124.74,1,Brady Williams,Fairfield,116.57,249.48,142.88,181.44,573.79,Single-ply,SBD,M,
Boys,124.74,2,James York,Mabank,121.11,185.97,106.59,190.51,483.08,Single-ply,SBD,M,
Boys,139.71,1,Lance Robertson,Malakoff,125.19,290.3,181.44,235.87,707.6,Single-ply,SBD,M,
Boys,139.71,2,Mason Logan,Malakoff,125.19,215.46,156.49,210.92,582.87,Single-ply,SBD,M,
Boys,139.71,3,Zackary Jackson,Malakoff,125.65,204.12,99.79,183.7,487.61,Single-ply,SBD,M,
Boys,139.71,4,Zanthony Jackson,Malakoff,127.01,201.85,102.06,174.63,478.54,Single-ply,SBD,M,
Boys,139.71+,1,Treyden Johnson,Fairfield,163.29,294.84,165.56,238.14,698.53,Single-ply,SBD,M,
Boys,139.71+,2,Logan Walker,Fairfield,164.2,226.8,158.76,192.78,578.33,Single-ply,SBD,M,
