Division,WeightClassKg,Place,Name,Team,BodyweightKg,Best3SquatKg,Best3BenchKg,Best3DeadliftKg,TotalKg,Equipment,Event,Sex
Boys,51.71,1,Ryan Dean,Waco Midway,50.89,140.61,79.38,147.42,367.41,Single-ply,SBD,M
Boys,51.71,2,Billy Pearson,Pflugerville Connally,51.71,117.93,58.97,142.88,319.78,Single-ply,SBD,M
Boys,51.71,3,Rushi Patel,College Station,49.99,120.2,61.23,136.08,317.51,Single-ply,SBD,M
Boys,51.71,4,Michael Sanchez,Hutto,51.44,120.2,61.23,127.01,308.44,Single-ply,SBD,M
Boys,51.71,5,Joel Bryan,College Station,49.17,136.08,56.7,111.13,303.91,Single-ply,SBD,M
Boys,51.71,6,Jason Jones #8,Burleson,47.45,92.99,58.97,136.08,288.03,Single-ply,SBD,M
Boys,51.71,7,David Cook,Burleson Centennial,49.99,102.06,56.7,122.47,281.23,Single-ply,SBD,M
Boys,51.71,NS,Cj Gloria,Marble Falls,,,,,,Single-ply,SBD,M
Boys,51.71,NS,Mikey Gomez,Kyle Lehman,,,,,,Single-ply,SBD,M
Boys,51.71,DQ,Dawson Caruso,Burleson,50.89,140.61,88.45,,,Single-ply,SBD,M
Boys,59.87,1,Alec Webster,Killeen Shoemaker,55.97,174.63,117.93,188.24,480.81,Single-ply,SBD,M
Boys,55.79,2,Davion Aldridge,Hutto,55.79,174.63,95.25,192.78,462.66,Single-ply,SBD,M
Boys,55.79,3,Shayne Streminski,Burleson Centennial,55.16,167.83,111.13,151.95,430.91,Single-ply,SBD,M
Boys,55.79,4,Dwight Roberts,Temple,55.34,142.88,77.11,174.63,394.63,Single-ply,SBD,M
Boys,55.79,5,Chris Sage,Bryan,54.25,142.88,72.57,167.83,383.29,Single-ply,SBD,M
Boys,55.79,6,Alex Mata,Lockhart,55.43,140.61,70.31,167.83,378.75,Single-ply,SBD,M
Boys,55.79,7,Owen Mallard,Georgetown,55.25,136.08,72.57,154.22,362.87,Single-ply,SBD,M
Boys,55.79,8,Zaki Hill,Belton,55.52,138.35,77.11,145.15,360.61,Single-ply,SBD,M
Boys,55.79,9,Ethan Ford,Burleson Centennial,53.98,104.33,65.77,142.88,312.98,Single-ply,SBD,M
Boys,55.79,DQ,Eric Ramirez,San Marcos,55.43,140.61,,,,Single-ply,SBD,M
Boys,67.13,1,Josh Bedolla,Elgin,60.06,188.24,120.2,215.46,523.9,Single-ply,SBD,M
Boys,59.87,2,David Tubig,Burleson,58.88,172.37,97.52,213.19,483.08,Single-ply,SBD,M
Boys,59.87,3,Justin Lara,Buda Hays,59.69,176.9,104.33,201.85,483.08,Single-ply,SBD,M
Boys,59.87,4,Eduardo Lizardo,Del Valle,59.51,167.83,113.4,192.78,474,Single-ply,SBD,M
Boys,59.87,5,Dominique Ubias,Elgin,58.88,167.83,97.52,197.31,462.66,Single-ply,SBD,M
Boys,59.87,6,Leo Calderon,San Marcos,58.88,156.49,111.13,147.42,415.04,Single-ply,SBD,M
Boys,59.87,7,Davis Dunn,Burleson Centennial,58.79,147.42,83.91,170.1,401.43,Single-ply,SBD,M
Boys,59.87,8,Chase Medford,Burleson Centennial,59.51,149.69,81.65,170.1,401.43,Single-ply,SBD,M
Boys,59.87,9,Estefano Lopez,Waco University,59.87,142.88,88.45,151.95,383.29,Single-ply,SBD,M
Boys,59.87,DQ,Tye Ochoa,Temple,58.6,,,,,Single-ply,SBD,M
Boys,67.13,1,Michael Royals,Burleson,67.04,201.85,106.59,208.65,517.1,Single-ply,SBD,M
Boys,67.13,2,Braden Tschirart,College Station,66.04,208.65,117.93,185.97,512.56,Single-ply,SBD,M
Boys,67.13,3,Sean Wofford,Burleson,64.95,181.44,106.59,217.72,505.76,Single-ply,SBD,M
Boys,67.13,4,Kenny Miller,Manor,66.86,183.7,117.93,204.12,505.76,Single-ply,SBD,M
Boys,67.13,5,Treston Womack,Waco Midway,67.04,181.44,113.4,204.12,498.95,Single-ply,SBD,M
Boys,67.13,6,Channing Christophe,Killeen Shoemaker,63.68,165.56,113.4,190.51,469.47,Single-ply,SBD,M
Boys,67.13,7,Anthony Ortegon,Georgetown East View,65.41,167.83,108.86,192.78,469.47,Single-ply,SBD,M
Boys,67.13,8,Luis Mena,Del Valle,66,167.83,117.93,181.44,467.2,Single-ply,SBD,M
Boys,67.13,9,Kavin Ma,Burleson,66.68,161.03,95.25,199.58,455.86,Single-ply,SBD,M
Boys,67.13,10,Isaac Johnson,Elgin,66.59,174.63,92.99,183.7,451.32,Single-ply,SBD,M
Boys,74.84,11,Bradley Schwartzengraber,Copperas Cove,67.31,165.56,117.93,165.56,449.06,Single-ply,SBD,M
Boys,67.13,DQ,Hugo Perez,Lockhart,65.95,170.1,,,,Single-ply,SBD,M
Boys,74.84,1,Malik Stoutamire,Temple,74.12,185.97,133.81,224.53,544.31,Single-ply,SBD,M
Boys,74.84,2,Robert Franklin,College Station A&M Cons,74.21,201.85,129.27,206.38,537.51,Single-ply,SBD,M
Boys,74.84,3,Blaine Wootan,College Station,73.94,226.8,106.59,195.04,528.44,Single-ply,SBD,M
Boys,74.84,4,Omar Essix,Waco,72.57,208.65,97.52,219.99,526.17,Single-ply,SBD,M
Boys,74.84,5,Justis Owens,Hutto,73.75,206.38,122.47,197.31,526.17,Single-ply,SBD,M
Boys,74.84,6,Cairo Attaway,Waco Midway,73.03,176.9,129.27,215.46,521.63,Single-ply,SBD,M
Boys,82.1,7,Lane Yancy,Joshua,75.02,174.63,113.4,229.06,517.1,Single-ply,SBD,M
Boys,74.84,8,Miguel Anderson,Waco Midway,74.39,185.97,127.01,201.85,514.83,Single-ply,SBD,M
Boys,74.84,9,Cole Ballard,Hutto,74.57,183.7,111.13,190.51,485.34,Single-ply,SBD,M
Boys,74.84,DQ,Taylor Bissell,Burleson,69.49,,,,,Single-ply,SBD,M
Boys,89.81,1,Korey Chatman,Waco Midway,82.28,233.6,149.69,231.33,614.62,Single-ply,SBD,M
Boys,82.1,2,Brandon Ragoonath,Burleson,80.1,224.53,131.54,256.28,612.35,Single-ply,SBD,M
Boys,82.1,3,Jonathon Sylvester,College Station A&M Cons,78.11,244.94,117.93,244.94,607.81,Single-ply,SBD,M
Boys,89.81,4,Daniel Valdez,Granbury,82.28,229.06,140.61,233.6,603.28,Single-ply,SBD,M
Boys,82.1,5,Orlando Perez,Elgin,79.74,231.33,131.54,229.06,591.94,Single-ply,SBD,M
Boys,82.1,6,Fabien Perez,Elgin,81.74,238.14,131.54,208.65,578.33,Single-ply,SBD,M
Boys,82.1,7,Phillip Wilson,Pflugerville Connally,81.47,238.14,129.27,206.38,573.79,Single-ply,SBD,M
Boys,82.1,8,Will Grear,Del Valle,79.83,213.19,129.27,215.46,557.92,Single-ply,SBD,M
Boys,82.1,9,Ty Hill,Georgetown,79.29,199.58,117.93,233.6,551.11,Single-ply,SBD,M
Boys,82.1,10,Jeremy Rowe,Waco Midway,77.47,181.44,129.27,208.65,519.36,Single-ply,SBD,M
Boys,82.1,DQ,Chukie Ojiyi,Pflugerville Hendrickson,78.47,222.26,131.54,,,Single-ply,SBD,M
Boys,89.81,1,Desmond Payton,College Station,88.81,290.3,124.74,308.44,723.48,Single-ply,SBD,M
Boys,89.81,2,Josh Mercado,San Marcos,88.63,249.48,170.1,242.67,662.24,Single-ply,SBD,M
Boys,89.81,3,Andrew Carnes,Burleson,87.36,247.21,142.88,254.01,644.1,Single-ply,SBD,M
Boys,89.81,4,Joe Warehime,Belton,87.09,233.6,158.76,213.19,605.55,Single-ply,SBD,M
Boys,89.81,5,George Neef,Dripping Springs,88.99,254.01,124.74,226.8,605.55,Single-ply,SBD,M
Boys,89.81,6,John Harvey,Belton,86.36,222.26,129.27,226.8,578.33,Single-ply,SBD,M
Boys,89.81,7,Garrett Grant,College Station,85.46,204.12,122.47,229.06,555.65,Single-ply,SBD,M
Boys,89.81,8,Nate Hudson,Cleburne,88.99,213.19,117.93,204.12,535.24,Single-ply,SBD,M
Boys,89.81,DQ,Jerimiah Leyba,Belton,87.09,,,,,Single-ply,SBD,M
Boys,89.81,DQ,Zach Haverly,Waco Midway,89.27,217.72,,,,Single-ply,SBD,M
Boys,99.79,1,John Carter,Burleson,99.25,244.94,172.37,258.55,675.85,Single-ply,SBD,M
Boys,99.79,2,Curtis Hawkins,Lockhart,98.07,267.62,154.22,240.4,662.24,Single-ply,SBD,M
Boys,99.79,3,Will Efendiev,College Station,93.08,240.4,151.95,249.48,641.83,Single-ply,SBD,M
Boys,99.79,4,Joseph Frengel,Austin Lake Travis,96.8,254.01,151.95,235.87,641.83,Single-ply,SBD,M
Boys,99.79,5,Carlos Chester,Manor,98.34,226.8,151.95,260.82,639.57,Single-ply,SBD,M
Boys,99.79,6,Roderick Harris,Waco,99.52,249.48,147.42,235.87,632.76,Single-ply,SBD,M
Boys,99.79,7,Khalid Taylor,Del Valle,98.88,235.87,147.42,247.21,630.49,Single-ply,SBD,M
Boys,99.79,8,Joseph Rodriguez #5,Bastrop Cedar Creek,92.44,240.4,133.81,238.14,612.35,Single-ply,SBD,M
Boys,99.79,9,Colby Ardrey,Buda Hays,90.45,242.67,142.88,219.99,605.55,Single-ply,SBD,M
Boys,99.79,DQ,Sid Irwin,Burleson Centennial,90.08,226.8,151.95,,,Single-ply,SBD,M
Boys,109.77,1,Nathaniel Rutherford,Joshua,100.06,285.76,138.35,242.67,666.78,Single-ply,SBD,M
Boys,109.77,2,Derrick Moore,Waco,108.86,249.48,149.69,265.35,664.51,Single-ply,SBD,M
Boys,109.77,3,Kee Kee Johnson,Bryan,109.77,269.89,136.08,258.55,664.51,Single-ply,SBD,M
Boys,109.77,4,Artie Reyes,Bryan,109.32,249.48,147.42,215.46,612.35,Single-ply,SBD,M
Boys,109.77,5,James Hayes,College Station,108.68,238.14,127.01,238.14,603.28,Single-ply,SBD,M
Boys,109.77,6,Joe Kuhn,Burleson Centennial,107.95,235.87,147.42,215.46,598.74,Single-ply,SBD,M
Boys,109.77,7,Tyler Scarbrough,Burleson Centennial,107.5,215.46,120.2,226.8,562.45,Single-ply,SBD,M
Boys,109.77,DQ,Jon Ladner,Waco Midway,106.5,,,,,Single-ply,SBD,M
Boys,109.77,DQ,Shakanah Herrera,Copperas Cove,108.68,,,,,Single-ply,SBD,M
Boys,109.77,DQ,Eric Fowler,Manor,105.87,219.99,,,,Single-ply,SBD,M
Boys,124.74,1,Kody Russey,Burleson,114.12,294.84,176.9,294.84,766.57,Single-ply,SBD,M
Boys,124.74,2,Colton Hostetler,Burleson Centennial,122.65,294.84,176.9,283.5,755.23,Single-ply,SBD,M
Boys,124.74,3,Braden Martinez,Belton,120.16,294.84,145.15,278.96,718.94,Single-ply,SBD,M
Boys,124.74,4,Charles Owens #2,Bryan Rudder,122.2,294.84,167.83,254.01,716.68,Single-ply,SBD,M
Boys,124.74+,5,Alex Ramirez,Copperas Cove,124.92,263.08,129.27,281.23,673.58,Single-ply,SBD,M
Boys,124.74,6,Aaron Johnson #15,Georgetown,116.75,260.82,158.76,226.8,646.37,Single-ply,SBD,M
Boys,124.74,7,Travis Lock,Temple,119.57,235.87,147.42,254.01,637.3,Single-ply,SBD,M
Boys,124.74,8,Jose Lopez,Temple,119.02,238.14,158.76,235.87,632.76,Single-ply,SBD,M
Boys,124.74,9,Drew Rodriguez,College Station,121.02,281.23,136.08,215.46,632.76,Single-ply,SBD,M
Boys,124.74,10,Seth Seale,Buda Hays,118.93,226.8,156.49,231.33,614.62,Single-ply,SBD,M
Boys,124.74,11,Josh Ficklin,Elgin,122.65,226.8,147.42,235.87,610.08,Single-ply,SBD,M
Boys,124.74,DQ,Colton Nolen,Burleson Centennial,116.48,,,,,Single-ply,SBD,M
Boys,124.74+,1,Phil Aumua,Copperas Cove,135.9,303.91,167.83,281.23,752.96,Single-ply,SBD,M
Boys,124.74+,2,Tevin Boone,Cleburne,146.78,294.84,167.83,265.35,728.02,Single-ply,SBD,M
Boys,124.74+,3,Jordan Seymore,College Station,137.44,299.37,158.76,249.48,707.6,Single-ply,SBD,M
Boys,124.74+,4,Javon Chambers,Belton,140.43,283.5,156.49,219.99,659.98,Single-ply,SBD,M
Boys,124.74+,5,Philip Lynch,Temple,125.46,260.82,151.95,231.33,644.1,Single-ply,SBD,M
Boys,124.74+,6,Jessie Edison,Killeen Shoemaker,132.36,306.17,147.42,190.51,644.1,Single-ply,SBD,M
Boys,124.74+,7,Drew Thigpen,Temple,133.08,274.42,154.22,204.12,632.76,Single-ply,SBD,M
Boys,124.74+,8,Nakeveyon Vincent,Waco,143.52,283.5,145.15,204.12,632.76,Single-ply,SBD,M
Boys,124.74+,9,Justin Melton,Temple,138.07,233.6,167.83,226.8,628.23,Single-ply,SBD,M
Boys,124.74+,10,Eliahs Williams,Burleson,127.73,222.26,138.35,256.28,616.89,Single-ply,SBD,M
Boys,124.74+,11,Jermaine Townsend,Temple,137.26,249.48,136.08,215.46,601.01,Single-ply,SBD,M
