Division,WeightClassKg,Place,Name,Team,BodyweightKg,Best3SquatKg,Best3BenchKg,Best3DeadliftKg,TotalKg,Equipment,Event,Sex
Boys,51.71,1,Justin Hernandez,Weslaco East,49.71,154.22,79.38,167.83,401.43,Single-ply,SBD,M
Boys,51.71,2,Gilbert Gonzalez,Edinburg Vela,47.81,183.7,102.06,104.33,390.09,Single-ply,SBD,M
Boys,51.71,3,Everardo Garcia,Roma,49.99,140.61,79.38,156.49,376.48,Single-ply,SBD,M
Boys,51.71,4,Devon Vela,Edinburg Vela,51.44,133.81,83.91,154.22,371.95,Single-ply,SBD,M
Boys,51.71,5,Victor Vidal,Pharr Valley View,51.53,136.08,70.31,145.15,351.53,Single-ply,SBD,M
Boys,51.71,6,Marc Sedillo,San Benito,51.62,127.01,72.57,151.95,351.53,Single-ply,SBD,M
Boys,51.71,7,Daniel Jeronimo,Hidalgo Early College,50.53,129.27,56.7,131.54,317.51,Single-ply,SBD,M
Boys,51.71,8,Cody Acosta,PSJA,47.72,108.86,68.04,136.08,312.98,Single-ply,SBD,M
Boys,51.71,9,Damian Gonzalez,Roma,50.89,120.2,65.77,124.74,310.71,Single-ply,SBD,M
Boys,51.71,DQ,Rolando Flores,Roma,50.8,,,,,Single-ply,SBD,M
Boys,51.71,DQ,AJ Rodriguez,Mission Veterans Memorial,48.9,,,,,Single-ply,SBD,M
Boys,51.71,DQ,John Ortega,Mercedes,41.64,108.86,,,,Single-ply,SBD,M
Boys,55.79,1,Joel Sanchez #2,Brownsville Veterans Memorial,55.79,199.58,102.06,201.85,503.49,Single-ply,SBD,M
Boys,55.79,2,Tyler Salazar,Donna,54.25,183.7,102.06,172.37,458.13,Single-ply,SBD,M
Boys,55.79,3,Marco Pina,Donna North,55.79,170.1,104.33,172.37,446.79,Single-ply,SBD,M
Boys,55.79,4,Marc Ortega,Mercedes,55.34,158.76,97.52,156.49,412.77,Single-ply,SBD,M
Boys,55.79,5,Matthew Morales,Edinburg Quest College Prep,54.7,147.42,88.45,170.1,405.97,Single-ply,SBD,M
Boys,55.79,6,Daniel García,Edinburg Quest College Prep,55.16,131.54,79.38,147.42,358.34,Single-ply,SBD,M
Boys,55.79,7,Michael Puente,PSJA Southwest,53.34,122.47,72.57,133.81,328.85,Single-ply,SBD,M
Boys,55.79,DQ,Aldrich Becerra,La Feria,55.25,92.99,74.84,,,Single-ply,SBD,M
Boys,55.79,DQ,Aaron Lozano,Edinburg Quest College Prep,55.79,,,,,Single-ply,SBD,M
Boys,55.79,DQ,Dohnovian Garza,Edinburg Idea College Prep,55.7,,,,,Single-ply,SBD,M
Boys,59.87,1,Ricky Ortiz #1,Edcouch-Elsa,59.01,199.58,115.67,199.58,514.83,Single-ply,SBD,M
Boys,59.87,2,Demetrio Guerrero,Edinburg,59.87,172.37,120.2,185.97,478.54,Single-ply,SBD,M
Boys,59.87,3,Marcus Ysaguirre,Donna,58.97,188.24,104.33,170.1,462.66,Single-ply,SBD,M
Boys,59.87,4,Miguel Tovar,Donna North,59.6,176.9,86.18,185.97,449.06,Single-ply,SBD,M
Boys,59.87,5,Cristian Garcia #2,San Benito,59.42,156.49,95.25,179.17,430.91,Single-ply,SBD,M
Boys,59.87,6,Marco Solis,Edinburg,59.06,163.29,104.33,158.76,426.38,Single-ply,SBD,M
Boys,59.87,7,Joshua Martinez,Hidalgo Early College,58.51,158.76,92.99,167.83,419.57,Single-ply,SBD,M
Boys,59.87,8,Andrew Nevarez,Edinburg Idea College Prep,59.78,163.29,88.45,167.83,419.57,Single-ply,SBD,M
Boys,59.87,9,Juan Gonzalez,PSJA Southwest,59.87,154.22,95.25,170.1,419.57,Single-ply,SBD,M
Boys,59.87,10,Ozzy Garza,PSJA Southwest,59.69,142.88,86.18,163.29,392.36,Single-ply,SBD,M
Boys,59.87,11,Kevin Marroquin,PSJA Southwest,57.88,124.74,74.84,161.03,360.61,Single-ply,SBD,M
Boys,59.87,12,Jeremy Solis,Edinburg Vela,57.61,129.27,77.11,149.69,356.07,Single-ply,SBD,M
Boys,59.87,13,Diego Gonzalez,Mercedes,56.34,120.2,88.45,142.88,351.53,Single-ply,SBD,M
Boys,59.87,14,Vincent Balderas,Edinburg North,59.42,99.79,68.04,129.27,297.1,Single-ply,SBD,M
Boys,59.87,DQ,Joe Ramirez,Edinburg Vela,59.33,174.63,111.13,,,Single-ply,SBD,M
Boys,67.13,1,Freddy Gonzalez #1,Weslaco East,67.13,210.92,145.15,208.65,564.72,Single-ply,SBD,M
Boys,67.13,2,Robert Alaniz,Weslaco East,66.86,210.92,120.2,213.19,544.31,Single-ply,SBD,M
Boys,67.13,3,Ryan Rodriguez,Weslaco East,66.04,204.12,113.4,190.51,508.02,Single-ply,SBD,M
Boys,67.13,4,Tony Sauceda,Edinburg Economedes,64.68,170.1,120.2,195.04,485.34,Single-ply,SBD,M
Boys,67.13,5,David Belland,Edinburg Idea College Prep,67.13,197.31,97.52,190.51,485.34,Single-ply,SBD,M
Boys,67.13,6,Angel Sandoval,Donna North,65.5,172.37,106.59,199.58,478.54,Single-ply,SBD,M
Boys,67.13,7,Anthony de Leon,Edinburg Quest College Prep,65.86,158.76,102.06,192.78,453.59,Single-ply,SBD,M
Boys,67.13,8,Hugo Gomez,Edinburg North,66.41,174.63,106.59,165.56,446.79,Single-ply,SBD,M
Boys,67.13,9,Ruben Garza,Donna North,66.77,161.03,104.33,165.56,430.91,Single-ply,SBD,M
Boys,67.13,10,Carlos Coronado,Edinburg North,67.13,149.69,104.33,172.37,426.38,Single-ply,SBD,M
Boys,67.13,11,Edgardo Godoy,Edinburg Quest College Prep,65.86,142.88,83.91,149.69,376.48,Single-ply,SBD,M
Boys,67.13,12,Isaac Bernal,Edinburg North,64.32,136.08,72.57,149.69,358.34,Single-ply,SBD,M
Boys,67.13,DQ,Leo Cuellar,Pharr Valley View,62.82,,,,,Single-ply,SBD,M
Boys,67.13,DQ,Alex Franco #1,Edinburg Vela,66.32,192.78,131.54,,,Single-ply,SBD,M
Boys,67.13,DQ,Bryan Rodriguez,La Joya Juarez-Lincoln,62.41,208.65,102.06,,,Single-ply,SBD,M
Boys,67.13,DQ,Joe Colunga,Mercedes,63.68,,,,,Single-ply,SBD,M
Boys,67.13,DQ,Seb De Leon,Mercedes,66.13,188.24,,,,Single-ply,SBD,M
Boys,67.13,DQ,Carlos Sanchez,San Benito,67.04,,,,,Single-ply,SBD,M
Boys,74.84,1,Andres Hernandez,Hidalgo Early College,74.84,244.94,138.35,235.87,619.15,Single-ply,SBD,M
Boys,74.84,2,Jorge Cavazos,Mercedes,70.94,235.87,133.81,213.19,582.87,Single-ply,SBD,M
Boys,74.84,3,Jorge Almanza,Edinburg Economedes,73.66,226.8,129.27,217.72,573.79,Single-ply,SBD,M
Boys,74.84,4,Richard Reza,San Benito,73.48,210.92,122.47,235.87,569.26,Single-ply,SBD,M
Boys,74.84,5,Mike Lopez #2,Edinburg,73.12,195.04,124.74,190.51,510.29,Single-ply,SBD,M
Boys,74.84,6,Matt Gracia,Mercedes,71.21,181.44,124.74,174.63,480.81,Single-ply,SBD,M
Boys,74.84,7,Andrew Solis,Edinburg Vela,74.66,172.37,129.27,170.1,471.74,Single-ply,SBD,M
Boys,74.84,8,Damian Garza,Roma,72.39,167.83,106.59,176.9,451.32,Single-ply,SBD,M
Boys,74.84,9,Armando Ayala,Pharr Valley View,69.99,172.37,90.72,176.9,439.98,Single-ply,SBD,M
Boys,74.84,10,Oscar Rivera,Edinburg North,73.75,151.95,102.06,161.03,415.04,Single-ply,SBD,M
Boys,74.84,11,AJ Munguia,Mission Veterans Memorial,73.39,156.49,111.13,145.15,412.77,Single-ply,SBD,M
Boys,74.84,12,Troy de la Garza,La Feria,69.94,138.35,102.06,165.56,405.97,Single-ply,SBD,M
Boys,74.84,13,Arturo Perez,Mission Veterans Memorial,72.39,129.27,74.84,181.44,385.55,Single-ply,SBD,M
Boys,74.84,14,Luis Cuellar,Pharr Valley View,71.12,122.47,81.65,149.69,353.8,Single-ply,SBD,M
Boys,74.84,15,Micheal Zamora,Pharr Valley View,74.21,111.13,70.31,122.47,303.91,Single-ply,SBD,M
Boys,74.84,DQ,Sean De La Garza,Mission Veterans Memorial,72.67,,,,,Single-ply,SBD,M
Boys,74.84,DQ,Jose Moreno,Roma,70.49,,,,,Single-ply,SBD,M
Boys,74.84,DQ,Christian Avila,Weslaco East,71.3,183.7,106.59,,,Single-ply,SBD,M
Boys,82.1,1,Michael Valle,Hidalgo Early College,82.1,235.87,131.54,231.33,598.74,Single-ply,SBD,M
Boys,82.1,2,Angel Mendez #1,Edinburg,81.37,235.87,136.08,213.19,585.13,Single-ply,SBD,M
Boys,82.1,3,Adalberto Segura,Edinburg,81.92,217.72,127.01,213.19,557.92,Single-ply,SBD,M
Boys,82.1,4,Angel Lopez #2,Donna North,81.28,222.26,129.27,183.7,535.24,Single-ply,SBD,M
Boys,82.1,5,Eric Hinojosa,Mercedes,82.01,226.8,131.54,176.9,535.24,Single-ply,SBD,M
Boys,82.1,6,José Saldaña,La Feria,82.1,222.26,117.93,192.78,532.97,Single-ply,SBD,M
Boys,82.1,7,Jesse Garza,Edcouch-Elsa,78.74,219.99,127.01,181.44,528.44,Single-ply,SBD,M
Boys,82.1,8,Andrew Lozano,Edinburg Quest College Prep,81.83,190.51,120.2,197.31,508.02,Single-ply,SBD,M
Boys,82.1,9,Matt Aguirre,San Benito,80.1,195.04,97.52,199.58,492.15,Single-ply,SBD,M
Boys,82.1,10,Edison Flores,Mercedes,78.93,192.78,106.59,183.7,483.08,Single-ply,SBD,M
Boys,82.1,11,Juan Sanchez #6,Edinburg North,80.2,165.56,104.33,165.56,435.45,Single-ply,SBD,M
Boys,82.1,12,Jose Guzman,Donna,76.66,172.37,79.38,170.1,421.84,Single-ply,SBD,M
Boys,82.1,DQ,Gabriel Tijerina,PSJA,79.2,192.78,104.33,,,Single-ply,SBD,M
Boys,82.1,DQ,Mars Morales,San Benito,81.92,204.12,,,,Single-ply,SBD,M
Boys,82.1,DQ,James Champion,Edinburg,81.47,199.58,,,,Single-ply,SBD,M
Boys,89.81,1,Roy Pedraza,Weslaco East,86,276.69,172.37,272.16,721.21,Single-ply,SBD,M
Boys,89.81,2,Ernesto Preciado,Pharr Valley View,89.27,249.48,154.22,231.33,635.03,Single-ply,SBD,M
Boys,89.81,3,Edgar Arevalo,Edinburg,89.27,213.19,142.88,242.67,598.74,Single-ply,SBD,M
Boys,89.81,4,Isaac Aleman,Hidalgo Early College,89.36,222.26,140.61,235.87,598.74,Single-ply,SBD,M
Boys,89.81,5,Carlo Vargas,Donna North,87,226.8,131.54,231.33,589.67,Single-ply,SBD,M
Boys,89.81,6,Rene Cantu,Edinburg Vela,87.09,222.26,142.88,215.46,580.6,Single-ply,SBD,M
Boys,89.81,7,Calderini Berhan,Edinburg North,87,226.8,113.4,217.72,557.92,Single-ply,SBD,M
Boys,89.81,8,Matthew Vela,Weslaco East,87.72,204.12,127.01,217.72,548.85,Single-ply,SBD,M
Boys,89.81,9,Ryan Perales,Donna,89.81,199.58,131.54,183.7,514.83,Single-ply,SBD,M
Boys,89.81,10,Joel Barrera,Roma,85.91,197.31,115.67,199.58,512.56,Single-ply,SBD,M
Boys,89.81,11,Elder Manuel,Roma,89.72,201.85,136.08,174.63,512.56,Single-ply,SBD,M
Boys,89.81,12,Freddy Lozano,La Feria,86.45,188.24,136.08,183.7,508.02,Single-ply,SBD,M
Boys,89.81,13,Alex Aranda,PSJA,86.64,204.12,86.18,197.31,487.61,Single-ply,SBD,M
Boys,89.81,14,Humberto Martinez,Edinburg North,88.45,183.7,97.52,204.12,485.34,Single-ply,SBD,M
Boys,89.81,15,Uriel Aguilera,Pharr Valley View,85.73,197.31,113.4,172.37,483.08,Single-ply,SBD,M
Boys,89.81,16,Ruden Quintanilla,PSJA Southwest,89.18,183.7,88.45,204.12,476.27,Single-ply,SBD,M
Boys,89.81,17,Nathan Morales,La Feria,87,151.95,108.86,158.76,419.57,Single-ply,SBD,M
Boys,89.81,18,Osvaldo Garcia,Mission Veterans Memorial,88.99,147.42,86.18,174.63,408.23,Single-ply,SBD,M
Boys,89.81,19,Anthony Yenscencio,Donna,88.63,142.88,83.91,158.76,385.55,Single-ply,SBD,M
Boys,89.81,DQ,Jp Sandoval,Donna,88.09,,,,,Single-ply,SBD,M
Boys,89.81,DQ,Aaron Vela,Edinburg Quest College Prep,88.72,181.44,,,,Single-ply,SBD,M
Boys,99.79,1,Osvaldo Gomez,Edinburg Economedes,97.79,251.74,154.22,242.67,648.64,Single-ply,SBD,M
Boys,99.79,2,Ricky Cardoza,Weslaco East,94.08,242.67,172.37,226.8,641.83,Single-ply,SBD,M
Boys,99.79,3,Gilbert Romero,La Joya Juarez-Lincoln,99.43,240.4,145.15,219.99,605.55,Single-ply,SBD,M
Boys,99.79,4,Eddie Hernandez,La Joya Juarez-Lincoln,93.35,242.67,147.42,213.19,603.28,Single-ply,SBD,M
Boys,99.79,5,Aaron Vasquez,Edcouch-Elsa,99.79,226.8,149.69,226.8,603.28,Single-ply,SBD,M
Boys,99.79,6,Issac de Anda,Edcouch-Elsa,97.07,260.82,111.13,219.99,591.94,Single-ply,SBD,M
Boys,99.79,7,Joey Castillo,PSJA Southwest,93.08,238.14,145.15,206.38,589.67,Single-ply,SBD,M
Boys,99.79,8,Juan Cuellar,Edinburg,94.8,238.14,142.88,206.38,587.4,Single-ply,SBD,M
Boys,99.79,9,Juan Flores,PSJA,94.35,233.6,142.88,197.31,573.79,Single-ply,SBD,M
Boys,99.79,10,Arturo Alvarado,La Feria,94.35,226.8,142.88,204.12,573.79,Single-ply,SBD,M
Boys,99.79,11,Albert Monroy,Mission Veterans Memorial,95.71,233.6,124.74,210.92,569.26,Single-ply,SBD,M
Boys,99.79,12,Roger Juarez,PSJA,99.52,201.85,158.76,201.85,562.45,Single-ply,SBD,M
Boys,99.79,13,Luis Molina,Brownsville Veterans Memorial,97.34,208.65,115.67,235.87,560.19,Single-ply,SBD,M
Boys,99.79,14,Eloy Lopez,Edinburg North,97.52,213.19,113.4,226.8,553.38,Single-ply,SBD,M
Boys,99.79,15,Eric Curiel,San Benito,97.7,215.46,113.4,215.46,544.31,Single-ply,SBD,M
Boys,99.79,16,Israel Cerda,Donna North,98.7,219.99,129.27,195.04,544.31,Single-ply,SBD,M
Boys,99.79,17,Brian Garcia,Edinburg North,97.7,190.51,147.42,197.31,535.24,Single-ply,SBD,M
Boys,99.79,18,Axel Martinez,Roma,97.89,206.38,120.2,206.38,532.97,Single-ply,SBD,M
Boys,99.79,19,Issac Rangel,Donna,90.72,226.8,102.06,188.24,517.1,Single-ply,SBD,M
Boys,99.79,20,Cain Rodriguez,PSJA,91.08,192.78,120.2,192.78,505.76,Single-ply,SBD,M
Boys,99.79,DQ,Josh Hernandez,Donna,98.97,,,,,Single-ply,SBD,M
Boys,99.79,DQ,Eddie Hinojosa,Edinburg Vela,93.44,,,,,Single-ply,SBD,M
Boys,109.77,1,Ralph Montemayor,Edinburg Vela,106.87,281.23,170.1,235.87,687.19,Single-ply,SBD,M
Boys,109.77,2,Cody Alvarado,Edcouch-Elsa,108.95,272.16,156.49,258.55,687.19,Single-ply,SBD,M
Boys,109.77,3,Marcos Garza,Edinburg Economedes,106.59,267.62,156.49,249.48,673.58,Single-ply,SBD,M
Boys,109.77,4,Eddie Gomez,Edcouch-Elsa,109.54,249.48,165.56,233.6,648.64,Single-ply,SBD,M
Boys,109.77,5,Alexis Garces,PSJA Southwest,101.6,229.06,161.03,206.38,596.47,Single-ply,SBD,M
Boys,109.77,6,Arturo Guevara,La Feria,107.14,233.6,136.08,226.8,596.47,Single-ply,SBD,M
Boys,109.77,7,Ramon Sánchez,Hidalgo Early College,107.77,226.8,122.47,215.46,564.72,Single-ply,SBD,M
Boys,109.77,8,Angel Guiterrez,Pharr Valley View,107.14,215.46,120.2,197.31,532.97,Single-ply,SBD,M
Boys,109.77,9,Juan Martinez,La Joya Juarez-Lincoln,108.59,213.19,120.2,195.04,528.44,Single-ply,SBD,M
Boys,109.77,10,JJ Barrientes,PSJA,101.24,188.24,122.47,192.78,503.49,Single-ply,SBD,M
Boys,109.77,11,Matthew Leal,Edinburg North,102.69,185.97,136.08,163.29,485.34,Single-ply,SBD,M
Boys,109.77,12,Rogelio Rada,Donna,107.14,195.04,90.72,183.7,469.47,Single-ply,SBD,M
Boys,109.77,13,Gabriel Morales,La Feria,104.96,183.7,106.59,149.69,439.98,Single-ply,SBD,M
Boys,109.77,14,John J Velasquez,Edinburg Quest College Prep,103.06,149.69,115.67,158.76,424.11,Single-ply,SBD,M
Boys,109.77,DQ,Roman Garza,PSJA,109.04,165.56,108.86,,,Single-ply,SBD,M
Boys,109.77,DQ,Misael Garcia,Brownsville Veterans Memorial,104.87,226.8,,,,Single-ply,SBD,M
Boys,109.77,DQ,Axel Hernandez #2,Mission Veterans Memorial,106.05,201.85,92.99,,,Single-ply,SBD,M
Boys,109.77,DQ,Sergio Pena,Edinburg Quest College Prep,101.88,,,,,Single-ply,SBD,M
Boys,109.77,DQ,Jarek Gonzalez,Hidalgo Early College,106.59,233.6,108.86,,,Single-ply,SBD,M
Boys,109.77,DQ,Gus Silva,Donna,109.32,294.84,158.76,,,Single-ply,SBD,M
Boys,109.77,DQ,Juan Martinez,Donna North,108.95,294.84,,,,Single-ply,SBD,M
Boys,109.77,DQ,JR Salinas,Mercedes,106.05,,,,,Single-ply,SBD,M
Boys,109.77,DQ,Aliver Chapa,La Joya Juarez-Lincoln,104.78,,,,,Single-ply,SBD,M
Boys,109.77,DQ,Oscar Juarez,Edinburg,108.77,269.89,181.44,,,Single-ply,SBD,M
Boys,109.77,DQ,Freddy Valdez,Edinburg,104.87,247.21,149.69,,,Single-ply,SBD,M
Boys,109.77,DQ,Carlos Garza,Roma,107.59,183.7,,,,Single-ply,SBD,M
Boys,109.77,DQ,Mario Trevino,Weslaco East,107.32,,,,,Single-ply,SBD,M
Boys,124.74,1,Fabian Castillo,Edinburg Economedes,122.47,306.17,188.24,265.35,759.77,Single-ply,SBD,M
Boys,124.74,2,Jaime Hurtado,PSJA,121.02,238.14,172.37,235.87,646.37,Single-ply,SBD,M
Boys,124.74,3,Chris Vargas,San Benito,121.56,242.67,149.69,217.72,610.08,Single-ply,SBD,M
Boys,124.74,4,Enrique Guajardo,Pharr Valley View,111.49,233.6,122.47,217.72,573.79,Single-ply,SBD,M
Boys,124.74,5,Miguel Rodriguez,Edcouch-Elsa,114.12,251.74,117.93,192.78,562.45,Single-ply,SBD,M
Boys,124.74,6,Aubrey Elizondo,Mercedes,118.66,192.78,124.74,201.85,519.36,Single-ply,SBD,M
Boys,124.74,7,Marcos Solis,Roma,114.03,217.72,124.74,167.83,510.29,Single-ply,SBD,M
Boys,124.74,8,Oscar Lopez,PSJA Southwest,113.13,206.38,113.4,179.17,498.95,Single-ply,SBD,M
Boys,124.74,9,Santos Cantu,Roma,118.3,195.04,124.74,172.37,492.15,Single-ply,SBD,M
Boys,124.74,10,Damien Gomez,Mission Veterans Memorial,124.01,183.7,102.06,188.24,474,Single-ply,SBD,M
Boys,124.74,DQ,Adrian Meza,Mission Veterans Memorial,112.49,165.56,99.79,,,Single-ply,SBD,M
Boys,124.74,DQ,Pablo Trevino,Edinburg Vela,123.65,290.3,,,,Single-ply,SBD,M
Boys,124.74,DQ,Danny Melendez,Mercedes,114.85,267.62,,,,Single-ply,SBD,M
Boys,124.74,DQ,Vicente Correa,Brownsville Veterans Memorial,121.47,,,,,Single-ply,SBD,M
Boys,124.74+,1,Daniel Roque,Weslaco East,156.76,285.76,136.08,233.6,655.44,Single-ply,SBD,M
Boys,124.74+,2,Napoleon Garza,Hidalgo Early College,153.04,229.06,149.69,197.31,576.06,Single-ply,SBD,M
Boys,124.74+,3,Ivan Tejada,La Feria,128.19,238.14,115.67,204.12,557.92,Single-ply,SBD,M
Boys,124.74+,4,Isaac Olvera,Donna North,146.78,240.4,120.2,192.78,553.38,Single-ply,SBD,M
Boys,124.74+,5,David Chapa,PSJA,131.63,233.6,117.93,197.31,548.85,Single-ply,SBD,M
Boys,124.74+,6,Orlando Cabrera,Weslaco East,125.46,226.8,122.47,188.24,537.51,Single-ply,SBD,M
Boys,124.74+,7,Isaac Maynez,PSJA Southwest,127.01,219.99,142.88,174.63,537.51,Single-ply,SBD,M
Boys,124.74+,8,Gerano Cantu,Pharr Valley View,125.55,192.78,95.25,156.49,444.52,Single-ply,SBD,M
Boys,124.74+,DQ,Aaron Aguilar,Edinburg Vela,129.82,215.46,133.81,,,Single-ply,SBD,M
Boys,124.74+,DQ,Jose Marquez,Edinburg,162.57,,,,,Single-ply,SBD,M
Boys,124.74+,DQ,Eli Olivo,Donna North,139.34,319.78,210.92,,,Single-ply,SBD,M
Boys,124.74+,DQ,Hector Garcia #5,San Benito,150.32,,,,,Single-ply,SBD,M
Boys,124.74+,DQ,Hector De Jesus,San Benito,124.83,,,,,Single-ply,SBD,M
Boys,,NS,Robert Ramon,Brownsville Veterans Memorial,,,,,,Single-ply,SBD,M
Boys,,NS,Demetrio Guerrero,La Joya Juarez-Lincoln,,,,,,Single-ply,SBD,M
