Division,WeightClassKg,Place,Name,Team,BodyweightKg,Best3SquatKg,Best3BenchKg,Best3DeadliftKg,TotalKg,Equipment,Event,Sex,BirthDate
Boys,51.71,1,Tomas Elizondo,San Diego,51.17,120.2,65.77,136.08,322.05,Single-ply,SBD,M,
Boys,51.71,2,Justin Bronaugh,Skidmore-Tynan,51.62,92.99,61.23,117.93,272.16,Single-ply,SBD,M,
Boys,51.71,3,Joseph Morman,Corpus Christi John Paul II High School,45.72,79.38,54.43,129.27,263.08,Single-ply,SBD,M,
Boys,55.79,1,Matthew Lopez #2,Mathis,55.34,163.29,81.65,176.9,421.84,Single-ply,SBD,M,
Boys,55.79,2,David Perez,Ben Bolt-Palito Blanco,55.43,129.27,86.18,147.42,362.87,Single-ply,SBD,M,
Boys,55.79,3,Christopher Edwards,Aransas Pass,53.07,120.2,83.91,142.88,347,Single-ply,SBD,M,
Boys,55.79,4,Jordan Barrera,Santa Gertrudis Academy,55.79,106.59,74.84,136.08,317.51,Single-ply,SBD,M,
Boys,55.79,DQ,Jose Miranda #2,Kenedy,52.53,,,,,Single-ply,SBD,M,
Boys,59.87,1,Alex Gonzalez #3,Banquete,59.42,120.2,74.84,140.61,335.66,Single-ply,SBD,M,
Boys,59.87,2,Chris Trevino,San Diego,56.52,104.33,68.04,142.88,315.25,Single-ply,SBD,M,
Boys,59.87,3,Jacob Perez #6,Freer,59.87,113.4,58.97,129.27,301.64,Single-ply,SBD,M,
Boys,59.87,4,Mikel Niembro,George West,57.7,108.86,68.04,108.86,285.76,Single-ply,SBD,M,
Boys,59.87,DQ,Marques Shelton,Santa Gertrudis Academy,59.33,68.04,,,,Single-ply,SBD,M,
Boys,59.87,DQ,Robert Rios,Mathis,59.51,,,,,Single-ply,SBD,M,
Boys,67.13,1,Elijah Ybarra,Mathis,66.68,206.38,133.81,190.51,530.7,Single-ply,SBD,M,
Boys,67.13,2,Jose Saenz,San Diego,64.32,183.7,115.67,185.97,485.34,Single-ply,SBD,M,
Boys,67.13,3,Jody Ruiz,Mathis,65.68,172.37,133.81,176.9,483.08,Single-ply,SBD,M,
Boys,67.13,4,Alex Sanchez,Kenedy,65.05,176.9,90.72,190.51,458.13,Single-ply,SBD,M,
Boys,67.13,5,Austin Mendez,San Diego,63.5,170.1,102.06,181.44,453.59,Single-ply,SBD,M,
Boys,67.13,6,Chris Acosta #1,Ingleside,63.23,163.29,92.99,163.29,419.57,Single-ply,SBD,M,
Boys,67.13,7,Jonathan Mendoza,Ingleside,60.24,147.42,97.52,158.76,403.7,Single-ply,SBD,M,
Boys,67.13,8,Deac Davis,Pettus,65.41,145.15,97.52,156.49,399.16,Single-ply,SBD,M,
Boys,67.13,9,Lorenzo Davila,Aransas Pass,62.69,131.54,97.52,156.49,385.55,Single-ply,SBD,M,
Boys,67.13,10,Regan Villarreal,Kenedy,60.6,147.42,74.84,133.81,356.07,Single-ply,SBD,M,
Boys,67.13,11,Brandon Centers,George West,66.5,122.47,81.65,151.95,356.07,Single-ply,SBD,M,
Boys,67.13,12,Nygel Hudson,Ingleside,66.04,147.42,77.11,127.01,351.53,Single-ply,SBD,M,
Boys,67.13,13,Michael Vidal,San Diego,66.77,122.47,83.91,136.08,342.46,Single-ply,SBD,M,
Boys,67.13,14,Clinton Reiter,Aransas Pass,66.04,120.2,81.65,124.74,326.59,Single-ply,SBD,M,
Boys,67.13,15,Tyler Adams #6,Pettus,61.69,124.74,70.31,122.47,317.51,Single-ply,SBD,M,
Boys,67.13,16,Roel Garcia,Freer,65.14,92.99,72.57,122.47,288.03,Single-ply,SBD,M,
Boys,67.13,17,Marcus Gabriel,Skidmore-Tynan,66.63,99.79,70.31,104.33,274.42,Single-ply,SBD,M,
Boys,67.13,18,Nick Borrego,Banquete,65.77,117.93,65.77,79.38,263.08,Single-ply,SBD,M,
Boys,67.13,19,Dylan Vasquez,Corpus Christi John Paul II High School,63.59,74.84,63.5,65.77,204.12,Single-ply,SBD,M,
Boys,67.13,DQ,Tomas Morin,San Diego,66.22,158.76,,,,Single-ply,SBD,M,
Boys,67.13,DQ,Jason Sanchez,Santa Gertrudis Academy,67.13,102.06,,,,Single-ply,SBD,M,
Boys,74.84,1,Lee Bazan,San Diego,74.66,247.21,142.88,219.99,610.08,Single-ply,SBD,M,
Boys,74.84,2,Jaxon Mabile,Ingleside,74.03,249.48,124.74,231.33,605.55,Single-ply,SBD,M,
Boys,74.84,3,Rafael Garza,Poteet,67.59,183.7,115.67,185.97,485.34,Single-ply,SBD,M,
Boys,74.84,4,Alvin Amador,Kenedy,73.39,183.7,106.59,192.78,483.08,Single-ply,SBD,M,
Boys,74.84,5,CJ Tanguma,Mathis,73.39,185.97,113.4,170.1,469.47,Single-ply,SBD,M,
Boys,74.84,6,Gene Ratliff,Goliad,73.57,154.22,106.59,163.29,424.11,Single-ply,SBD,M,
Boys,74.84,7,Gage Barrera,Goliad,73.66,170.1,88.45,147.42,405.97,Single-ply,SBD,M,
Boys,74.84,8,Noah Paiz,George West,67.95,151.95,92.99,158.76,403.7,Single-ply,SBD,M,
Boys,74.84,9,Raul Vasquez,Ingleside,68.67,151.95,92.99,158.76,403.7,Single-ply,SBD,M,
Boys,74.84,10,Lukas Luera,San Diego,71.21,142.88,102.06,142.88,387.82,Single-ply,SBD,M,
Boys,74.84,11,Joshua Espinosa #2,Skidmore-Tynan,71.67,115.67,65.77,183.7,365.14,Single-ply,SBD,M,
Boys,74.84,12,Trevor Bennett,Goliad,71.85,120.2,70.31,120.2,310.71,Single-ply,SBD,M,
Boys,74.84,13,Raymond Benavides,Three Rivers,71.94,90.72,63.5,120.2,274.42,Single-ply,SBD,M,
Boys,74.84,14,Deven Beltran,Banquete,74.84,90.72,61.23,117.93,269.89,Single-ply,SBD,M,
Boys,74.84,15,Joseph Rosas,Santa Gertrudis Academy,73.57,102.06,61.23,102.06,265.35,Single-ply,SBD,M,
Boys,74.84,16,Dylan Vela,Santa Gertrudis Academy,68.76,97.52,52.16,111.13,260.82,Single-ply,SBD,M,
Boys,74.84,17,James Garcia,Skidmore-Tynan,69.4,106.59,56.7,90.72,254.01,Single-ply,SBD,M,
Boys,74.84,18,Syriz Martrinez,Three Rivers,67.77,120.2,65.77,,185.97,Single-ply,SB,M,
Boys,74.84,DQ,Joel Davila,Kenedy,71.58,,,,,Single-ply,SB,M,
Boys,74.84,DQ,Joseph Valdez,Kenedy,71.03,,,,,Single-ply,SB,M,
Boys,74.84,DQ,Keegan Westmorland,Skidmore-Tynan,74.75,142.88,,,,Single-ply,SB,M,
Boys,74.84,DQ,Chris Garcia #15,Ben Bolt-Palito Blanco,70.49,170.1,,,,Single-ply,SB,M,
Boys,74.84,DQ,Logan Schanen,Skidmore-Tynan,71.67,,,,,Single-ply,SB,M,
Boys,74.84,DQ,Juan Rodriguez,Mathis,73.57,,,,,Single-ply,SB,M,
Boys,82.1,1,Nemencio Tijerina,Poteet,79.92,204.12,129.27,197.31,530.7,Single-ply,SBD,M,
Boys,82.1,2,Adrian Flores,Kenedy,77.29,183.7,92.99,190.51,467.2,Single-ply,SBD,M,
Boys,82.1,3,Fernando Castillo,George West,77.38,179.17,106.59,170.1,455.86,Single-ply,SBD,M,
Boys,82.1,4,Brandon Ridemour,Mathis,82.1,174.63,102.06,174.63,451.32,Single-ply,SBD,M,
Boys,82.1,5,Adrian Davila,Aransas Pass,79.92,147.42,113.4,161.03,421.84,Single-ply,SBD,M,
Boys,82.1,6,Chris Laughlin,Skidmore-Tynan,77.11,142.88,102.06,151.95,396.89,Single-ply,SBD,M,
Boys,82.1,7,Spencer Bosarge,Ingleside,78.83,138.35,102.06,142.88,383.29,Single-ply,SBD,M,
Boys,82.1,8,Jaime Salinas,San Diego,76.66,142.88,90.72,136.08,369.68,Single-ply,SBD,M,
Boys,82.1,9,Eian Meza,Aransas Pass,77.47,106.59,81.65,127.01,315.25,Single-ply,SBD,M,
Boys,82.1,DQ,Jeren Nava,Banquete,81.47,,,,,Single-ply,SBD,M,
Boys,89.81,1,Derik DeLeon,Mathis,88.09,276.69,190.51,254.01,721.21,Single-ply,SBD,M,
Boys,89.81,2,George De Los Santos,Kenedy,83.82,174.63,108.86,185.97,469.47,Single-ply,SBD,M,
Boys,89.81,3,Arnold Navarro,Ben Bolt-Palito Blanco,86.91,183.7,102.06,183.7,469.47,Single-ply,SBD,M,
Boys,89.81,4,John Guevara,Banquete,83.82,156.49,102.06,170.1,428.64,Single-ply,SBD,M,
Boys,89.81,5,Seth Morgan,Ingleside,85.91,156.49,102.06,161.03,419.57,Single-ply,SBD,M,
Boys,89.81,6,Caleb Blankenship,Three Rivers,85.46,111.13,92.99,127.01,331.12,Single-ply,SBD,M,
Boys,89.81,7,Ben Ortega,Santa Gertrudis Academy,85.64,102.06,61.23,140.61,303.91,Single-ply,SBD,M,
Boys,89.81,DQ,Mike Celis,Corpus Christi John Paul II High School,82.19,133.81,,,,Single-ply,SBD,M,
Boys,99.79,1,Seth Ruff,Ingleside,95.53,274.42,142.88,274.42,691.73,Single-ply,SBD,M,
Boys,99.79,2,Marcos Gonzales,Ben Bolt-Palito Blanco,98.34,226.8,142.88,238.14,607.81,Single-ply,SBD,M,
Boys,99.79,3,Jonathan Pena,San Diego,97.07,226.8,142.88,192.78,562.45,Single-ply,SBD,M,
Boys,99.79,4,Joseph Fillmore,Corpus Christi John Paul II High School,90.9,183.7,99.79,192.78,476.27,Single-ply,SBD,M,
Boys,99.79,5,Andrew Zuniga,Three Rivers,93.17,170.1,102.06,172.37,444.52,Single-ply,SBD,M,
Boys,99.79,6,Daniel Solorio,Banquete,93.8,151.95,90.72,165.56,408.23,Single-ply,SBD,M,
Boys,99.79,7,Ruben Gonzalez #1,San Diego,95.53,149.69,86.18,158.76,394.63,Single-ply,SBD,M,
Boys,99.79,8,Joe Guevara,Banquete,92.53,142.88,88.45,154.22,385.55,Single-ply,SBD,M,
Boys,99.79,9,Preston Wallace,Three Rivers,93.71,145.15,108.86,124.74,378.75,Single-ply,SBD,M,
Boys,99.79,10,Austin Neil,Ingleside,98.25,149.69,83.91,129.27,362.87,Single-ply,SBD,M,
Boys,99.79,11,Kaden Collins,Goliad,98.07,142.88,79.38,136.08,358.34,Single-ply,SBD,M,
Boys,99.79,12,Matt Ramirez,Santa Gertrudis Academy,95.8,138.35,74.84,136.08,349.27,Single-ply,SBD,M,
Boys,99.79,DQ,Moses Carrasco,Poteet,99.34,272.16,142.88,,,Single-ply,SBD,M,
Boys,99.79,DQ,Alex Gonzales #4,Kenedy,98.07,,,,,Single-ply,SBD,M,
Boys,99.79,DQ,Andrew Cuellar,Mathis,99.34,,,,,Single-ply,SBD,M,
Boys,99.79,DQ,Dante DeLeon,Mathis,98.43,,,,,Single-ply,SBD,M,
Boys,109.77,1,Clayton Klekar,Goliad,100.33,226.8,138.35,247.21,612.35,Single-ply,SBD,M,
Boys,109.77,2,Richard Alvarado,Aransas Pass,107.77,233.6,156.49,222.26,612.35,Single-ply,SBD,M,
Boys,109.77,3,Richard Salazar #1,George West,103.42,224.53,122.47,197.31,544.31,Single-ply,SBD,M,
Boys,109.77,4,Mason Pena,Ben Bolt-Palito Blanco,109.04,204.12,136.08,204.12,544.31,Single-ply,SBD,M,
Boys,109.77,5,Peyton Rasbiru,Mathis,107.14,208.65,133.81,165.56,508.02,Single-ply,SBD,M,
Boys,109.77,6,Noah Martinez #5,Santa Gertrudis Academy,108.77,176.9,106.59,183.7,467.2,Single-ply,SBD,M,
Boys,109.77,7,Chase Medina,Three Rivers,105.96,142.88,90.72,174.63,408.23,Single-ply,SBD,M,
Boys,109.77,8,AJ Obregon,Freer,106.59,158.76,106.59,138.35,403.7,Single-ply,SBD,M,
Boys,109.77,9,Keigan Reaga,Aransas Pass,101.42,149.69,104.33,142.88,396.89,Single-ply,SBD,M,
Boys,109.77,10,Terruy Carter,Aransas Pass,102.78,136.08,92.99,142.88,371.95,Single-ply,SBD,M,
Boys,109.77,11,Zarek Guerra,Goliad,109.04,117.93,83.91,108.86,310.71,Single-ply,SBD,M,
Boys,109.77,DQ,Victor Espinoza,Banquete,105.23,127.01,79.38,,,Single-ply,SBD,M,
Boys,124.74,1,Diego Gutierrez,Mathis,122.2,254.01,142.88,199.58,596.47,Single-ply,SBD,M,
Boys,124.74,2,Paul Rojas,Goliad,115.67,219.99,142.88,208.65,571.53,Single-ply,SBD,M,
Boys,124.74,3,John Roddriguez,Skidmore-Tynan,117.03,215.46,124.74,197.31,537.51,Single-ply,SBD,M,
Boys,124.74,4,John Cuevas #2,Skidmore-Tynan,117.93,215.46,138.35,183.7,537.51,Single-ply,SBD,M,
Boys,124.74,5,Jason Flores,Santa Gertrudis Academy,117.66,174.63,113.4,226.8,514.83,Single-ply,SBD,M,
Boys,124.74,6,Noah Cortinas,Corpus Christi John Paul II High School,116.57,183.7,129.27,183.7,496.68,Single-ply,SBD,M,
Boys,124.74,7,James Gomez,Banquete,113.31,204.12,111.13,170.1,485.34,Single-ply,SBD,M,
Boys,124.74,8,Sebastian Aleman,Skidmore-Tynan,113.4,190.51,127.01,158.76,476.27,Single-ply,SBD,M,
Boys,124.74,9,John Ayala,Corpus Christi John Paul II High School,123.38,142.88,113.4,206.38,462.66,Single-ply,SBD,M,
Boys,124.74,10,Jaydin Jones,Goliad,121.02,172.37,124.74,161.03,458.13,Single-ply,SBD,M,
Boys,124.74,11,Alex Gallegos,Aransas Pass,122.92,156.49,113.4,170.1,439.98,Single-ply,SBD,M,
Boys,124.74+,1,Xavier Perry,Goliad,140.98,274.42,142.88,229.06,646.37,Single-ply,SBD,M,
Boys,124.74+,2,Jody Martinez,Aransas Pass,147.87,238.14,165.56,226.8,630.49,Single-ply,SBD,M,
Boys,124.74+,3,Ruben Leal,Aransas Pass,141.34,226.8,165.56,195.04,587.4,Single-ply,SBD,M,
Boys,124.74+,4,Jacob Guerrero,Goliad,136.17,226.8,124.74,172.37,523.9,Single-ply,SBD,M,
Boys,124.74+,5,Arturo Gallegps III,Ingleside,143.34,206.38,115.67,190.51,512.56,Single-ply,SBD,M,
Boys,124.74+,6,Declan McCarn,Skidmore-Tynan,133.72,170.1,140.61,188.24,498.95,Single-ply,SBD,M,
Boys,124.74+,7,Walker Wimberly,Goliad,133.9,183.7,129.27,163.29,476.27,Single-ply,SBD,M,
Boys,124.74+,8,Paul Cruz,Skidmore-Tynan,147.42,183.7,106.59,183.7,474,Single-ply,SBD,M,
Boys,124.74+,DQ,Samuel Salinas,Santa Gertrudis Academy,129.46,217.72,,,,Single-ply,SBD,M,
