Place,Name,Sex,BirthDate,Age,Country,State,Equipment,Division,BodyweightKg,WeightClassKg,Squat1Kg,Squat2Kg,Squat3Kg,Squat4Kg,Best3SquatKg,Bench1Kg,Bench2Kg,Bench3Kg,Bench4Kg,Best3BenchKg,Deadlift1Kg,Deadlift2Kg,Deadlift3Kg,Deadlift4Kg,Best3DeadliftKg,TotalKg,Event
1,Missy Taylor,F,1975-05-04,46,USA,NC,Raw,M2-T,53.2,56,115,-120,120,,120,77.5,-80,80,,80,122.5,127.5,-130,,127.5,327.5,SBD
1,Yvette Bushard,F,1968-02-22,53,USA,NC,Raw,M3-T,63.1,67.5,92.5,102.5,122.5,,122.5,60,67.5,72.5,,72.5,102.5,110,127.5,,127.5,322.5,SBD
1,Sue Ann Hurlbert,F,1960-11-30,60,USA,SC,Raw,M5-T,48.9,52,47.5,51,52.5,,52.5,37.5,40,-42.5,,40,82.5,87.5,90,92.5,90,182.5,SBD
1,Missy Taylor,F,1975-05-04,46,USA,NC,Raw,O-T,53.2,56,115,-120,120,,120,77.5,-80,80,,80,122.5,127.5,-130,,127.5,327.5,SBD
1,Carmen Trivette,F,2008-10-31,12,USA,NC,Raw,Y-X,47.7,48,47.5,52.5,55,,55,35,37.5,-40,,37.5,52.5,57.5,62.5,65,62.5,155,SBD
DQ,Katy Silvers,F,1981-06-08,40,USA,NC,Wraps,M1-T,125.7,90+,160,165,172.5,,172.5,-72.5,-72.5,-72.5,,,150,157.5,172.5,,172.5,,SBD
1,Katy Silvers,F,1981-06-08,40,USA,NC,Raw,M1-T,125.7,90+,160,165,172.5,,172.5,,,,,,,,,,,172.5,S
1,Katy Silvers,F,1981-06-08,40,USA,NC,Raw,M1-T,125.7,90+,,,,,,,,,,,150,157.5,172.5,,172.5,172.5,D
1,Julia Blackman,F,1996-05-24,25,USA,NC,Wraps,O-T,65,67.5,125,132.5,137.5,,137.5,35,37.5,-45,,37.5,137.5,150,-165,,150,325,SBD
DQ,Katy Silvers,F,1981-06-08,40,USA,NC,Wraps,O-T,125.7,90+,160,165,172.5,,172.5,-72.5,-72.5,-72.5,,,150,157.5,172.5,,172.5,,SBD
1,Nevaeh McIntosh,F,2010-06-09,11,USA,KY,Wraps,Y-X,87.4,90,100,115,132.5,,132.5,52.5,-57.5,-57.5,,52.5,95,105,-110,,105,290,SBD
1,Melissa Smith #1,F,1974-08-28,47,USA,NC,Unlimited,M2-U,66.1,67.5,217.5,-230,230,,230,85,112.5,-115,,112.5,127.5,142.5,145,,145,487.5,SBD
1,Shelley Yates,F,1975-07-19,46,USA,NC,Unlimited,M2-U,89.5,90,255,-267.5,272.5,,272.5,-137.5,137.5,155,,155,167.5,182.5,-207.5,,182.5,610,SBD
1,Melissa Smith #1,F,1974-08-28,47,USA,NC,Unlimited,O-U,66.1,67.5,217.5,-230,230,,230,85,-112.5,-115,,85,127.5,142.5,145,,145,460,SBD
1,Shelley Yates,F,1975-07-19,46,USA,NC,Unlimited,O-U,89.5,90,255,-267.5,272.5,,272.5,-137.5,137.5,155,,155,167.5,182.5,-207.5,,182.5,610,SBD
1,Kelly Padgett,F,1970-03-09,51,USA,NC,Raw,M3-T,67.5,67.5,,,,,,55,-60,-60,,55,100,107.5,-115,,107.5,162.5,BD
1,Janet Martin,F,1968-11-29,52,USA,NC,Raw,M3-T,114.6,90+,,,,,,65,-72.5,-72.5,,65,137.5,155,162.5,165,162.5,227.5,BD
1,Nelda Newton,F,1962-04-09,59,USA,NC,Raw,M4-T,76.7,82.5,,,,,,45,50,-55,,50,92.5,105,110,,110,160,BD
1,Anika Harper,F,1980-04-03,41,USA,NC,Single-ply,M1-T,95.1,90+,,,,,,95,102.5,112.5,,112.5,150,167.5,-185,,167.5,280,BD
1,Anika Harper,F,1980-04-03,41,USA,NC,Single-ply,O-T,95.1,90+,,,,,,95,102.5,112.5,,112.5,150,167.5,-185,,167.5,280,BD
1,Shelley Yates,F,1975-07-19,46,USA,NC,Unlimited,M2-U,89.5,90,,,,,,-137.5,137.5,155,,155,167.5,182.5,-207.5,,182.5,337.5,BD
1,Shelley Yates,F,1975-07-19,46,USA,NC,Unlimited,O-U,89.5,90,,,,,,-137.5,137.5,155,,155,167.5,182.5,-207.5,,182.5,337.5,BD
1,Melissa Smith #1,F,1974-08-28,47,USA,NC,Unlimited,M2-U,66.1,67.5,217.5,-230,230,,230,,,,,,,,,,,230,S
1,Shelley Yates,F,1975-07-19,46,USA,NC,Unlimited,M2-U,89.5,90,255,-267.5,272.5,,272.5,,,,,,,,,,,272.5,S
1,Melissa Smith #1,F,1974-08-28,47,USA,NC,Unlimited,O-U,66.1,67.5,217.5,-230,230,,230,,,,,,,,,,,230,S
1,Shelley Yates,F,1975-07-19,46,USA,NC,Unlimited,O-U,89.5,90,255,-267.5,272.5,,272.5,,,,,,,,,,,272.5,S
1,Racquel Wilson,F,2000-07-11,21,USA,NC,Raw,J-T,49.1,52,,,,,,42.5,-50,-50,,42.5,,,,,,42.5,B
1,Janet Martin,F,1968-11-29,52,USA,NC,Raw,M3-T,114.6,90+,,,,,,65,-72.5,-72.5,,65,,,,,,65,B
1,Nelda Newton,F,1962-04-09,59,USA,NC,Raw,M4-T,76.7,82.5,,,,,,45,50,-55,,50,,,,,,50,B
1,Nevaeh McIntosh,F,2010-06-09,11,USA,KY,Raw,Y-X,87.4,90,,,,,,52.5,-57.5,-57.5,,52.5,,,,,,52.5,B
1,Anika Harper,F,1980-04-03,41,USA,NC,Single-ply,M1-T,95.1,90+,,,,,,95,102.5,112.5,,112.5,,,,,,112.5,B
1,Anika Harper,F,1980-04-03,41,USA,NC,Single-ply,O-T,95.1,90+,,,,,,95,102.5,112.5,,112.5,,,,,,112.5,B
DQ,Christina Lauffer,F,1978-07-01,43,USA,TN,Unlimited,M1-U,91.9,90+,,,,,,-100,-100,-100,,,,,,,,,B
1,Shelley Yates,F,1975-07-19,46,USA,NC,Unlimited,M2-U,89.5,90,,,,,,-137.5,137.5,155,,155,,,,,,155,B
1,Gi Gi Eller,F,1971-10-06,50,USA,NC,Multi-ply,M3-U,82.4,82.5,,,,,,200,-207.5,-207.5,,200,,,,,,200,B
1,Gi Gi Eller,F,1971-10-06,50,USA,NC,Multi-ply,O-U,82.4,82.5,,,,,,200,-207.5,-207.5,,200,,,,,,200,B
1,Shelley Yates,F,1975-07-19,46,USA,NC,Unlimited,O-U,89.5,90,,,,,,-137.5,137.5,155,,155,,,,,,155,B
1,Kambree Williamson,F,2013-04-06,8,USA,NC,Raw,K-X,25.2,44,,,,,,,,,,,27.5,32.5,40,,40,40,D
1,Janet Martin,F,1968-11-29,52,USA,NC,Raw,M3-T,114.6,90+,,,,,,,,,,,137.5,155,162.5,165,162.5,162.5,D
1,Nelda Newton,F,1962-04-09,59,USA,NC,Raw,M4-T,76.7,82.5,,,,,,,,,,,92.5,105,110,,110,110,D
1,Nevaeh McIntosh,F,2010-06-09,11,USA,KY,Raw,Y-X,87.4,90,,,,,,,,,,,95,105,-110,,105,105,D
1,Anika Harper,F,1980-04-03,41,USA,NC,Single-ply,M1-T,95.1,90+,,,,,,,,,,,150,167.5,-185,,167.5,167.5,D
1,Anika Harper,F,1980-04-03,41,USA,NC,Single-ply,O-T,95.1,90+,,,,,,,,,,,150,167.5,-185,,167.5,167.5,D
1,Melissa Smith #1,F,1974-08-28,47,USA,NC,Unlimited,M2-U,66.1,67.5,,,,,,,,,,,127.5,142.5,145,,145,145,D
1,Shelley Yates,F,1975-07-19,46,USA,NC,Unlimited,M2-U,89.5,90,,,,,,,,,,,167.5,182.5,-207.5,,182.5,182.5,D
1,Melissa Smith #1,F,1974-08-28,47,USA,NC,Unlimited,O-U,66.1,67.5,,,,,,,,,,,127.5,142.5,145,,145,145,D
1,Shelley Yates,F,1975-07-19,46,USA,NC,Unlimited,O-U,89.5,90,,,,,,,,,,,167.5,182.5,-207.5,,182.5,182.5,D
1,Jayveon Ross,M,2000-09-17,21,USA,NC,Raw,J-T,111.6,125,210,220,235,,235,122.5,130,-137.5,,130,200,220,230,,230,595,SBD
1,George Shelby,M,1980-10-30,40,USA,TN,Raw,M1-T,74.5,75,127.5,145,150,,150,85,95,-100,,95,145,170,-180,,170,415,SBD
1,Kenya Cherry,M,1978-10-31,42,USA,NC,Raw,M1-T,134.9,140,165,-192.5,195,,195,140,147.5,-160,,147.5,152.5,170,195,,195,537.5,SBD
1,Roger Pinnix,M,1969-09-05,52,USA,NC,Raw,M3-U,108.9,110,237.5,242.5,250,,250,192.5,-200,,,192.5,242.5,247.5,,,247.5,690,SBD
1,Curtis Rabon,M,,48,USA,NC,Raw,M2-U,120.3,125,247.5,,,,247.5,155,162.5,167.5,,167.5,247.5,262.5,277.5,,277.5,692.5,SBD
1,Zura Chkhetiani,M,1995-04-05,26,USA,NY,Raw,O-T,75,75,220,235,-245,,235,145,155,165,-168.5,165,220,230,240,,240,640,SBD
2,Chris Macera,M,1995-12-19,25,USA,NC,Raw,O-T,73.8,75,170,182.5,192.5,,192.5,147.5,-157.5,,,147.5,202.5,215,-227.5,,215,555,SBD
3,George Shelby,M,1980-10-30,40,USA,TN,Raw,O-T,74.5,75,127.5,145,150,,150,85,95,-100,,95,145,170,-180,,170,415,SBD
1,John Huderson,M,1993-08-04,28,USA,VA,Raw,O-T,88.7,90,242.5,252.5,260,,260,152.5,160,-170,,160,265,285,292.5,302.5,292.5,712.5,SBD
2,Cole Young,M,1997-09-07,24,USA,NC,Raw,O-T,88.6,90,185,197.5,210,,210,132.5,-137.5,-137.5,,132.5,222.5,-237.5,-237.5,,222.5,565,SBD
1,Kyle Childers,M,1997-04-24,24,USA,NC,Raw,O-T,117.8,125,275,282.5,295,,295,165,-175,-175,,165,255,-267.5,272.5,,272.5,732.5,SBD
2,Jayveon Ross,M,2000-09-17,21,USA,NC,Raw,O-T,111.6,125,210,220,235,,235,122.5,130,-137.5,,130,200,220,230,,230,595,SBD
1,Tyler Pinnix,M,1995-06-15,26,USA,NC,Raw,O-U,121.4,125,295,-317.5,317.5,,317.5,182.5,187.5,190,,190,295,-307.5,310,,310,817.5,SBD
2,Curtis Rabon,M,,48,USA,NC,Raw,O-U,120.3,125,247.5,,,,247.5,155,162.5,167.5,,167.5,247.5,262.5,277.5,,277.5,692.5,SBD
1,Thomas Samaha,M,1981-10-29,39,USA,SC,Raw,S-U,84.9,90,-182.5,-182.5,182.5,,182.5,130,132.5,-137.5,,132.5,182.5,187.5,192.5,,192.5,507.5,SBD
1,Jack Samaha,M,2008-02-05,13,USA,SC,Raw,T1-X,64.4,67.5,-107.5,-107.5,107.5,,107.5,60,62.5,65,,65,112.5,117.5,122.5,,122.5,295,SBD
1,Reid West,M,2005-12-14,15,USA,NC,Raw,T1-X,79.5,82.5,115,120,122.5,,122.5,65,72.5,-77.5,,72.5,125,135,142.5,145,142.5,337.5,SBD
1,Cai Parks,M,2005-03-18,16,USA,NC,Raw,T2-X,63,67.5,107.5,-112.5,112.5,,112.5,75,-85,-85,,75,125,132.5,137.5,,137.5,325,SBD
1,Maxwell Hedrick,M,2002-12-30,18,USA,NC,Raw,T3-X,72.9,75,152.5,160,172.5,,172.5,102.5,110,-117.5,,110,192.5,202.5,215,227.5,215,497.5,SBD
1,Wyatt Plyler,M,2001-08-24,20,USA,NC,Wraps,J-T,88.6,90,177.5,185,-192.5,,185,120,-122.5,-122.5,,120,185,195,-200,,195,500,SBD
1,Damien Cross,M,2001-06-14,20,USA,NC,Wraps,J-T,93,100,200,215,232.5,,232.5,110,117.5,122.5,,122.5,237.5,250,265,-272.5,265,620,SBD
1,Dylan Osborne,M,1999-01-30,22,USA,SC,Wraps,J-U,73.6,75,215,-227.5,227.5,,227.5,127.5,135,137.5,140,137.5,215,232.5,240,242.5,240,605,SBD
1,John Butler,M,1977-12-10,43,USA,NC,Wraps,M1-T,125.14,140,242.5,255,267.5,,267.5,160,-175,-175,,160,270,280,290,,290,717.5,SBD
1,Thomas LaRocco,M,1978-04-25,43,USA,VA,Wraps,M1-U,81.4,82.5,217.5,230,237.5,,237.5,145,152.5,155,,155,217.5,-227.5,-227.5,,217.5,610,SBD
1,Michael Edwards #1,M,1972-04-04,49,USA,SC,Wraps,M2-T,89.4,90,247.5,267.5,-282.5,,267.5,140,147.5,150,,150,275,295,-305,,295,712.5,SBD
1,Nathan Crawford,M,1965-09-22,56,USA,,Wraps,M4-T,88.3,90,120,-127.5,132.5,,132.5,75,-80,-80,,75,165,-172.5,-172.5,,165,372.5,SBD
1,Derek Williams #1,M,1966-06-19,55,USA,SC,Wraps,M4-U,107.7,110,250,267.5,275,,275,117.5,-125,-125,,117.5,230,242.5,250,,250,642.5,SBD
1,Thomas LaRocco,M,1978-04-25,43,USA,VA,Wraps,MPF-U,81.4,82.5,217.5,230,237.5,,237.5,145,152.5,155,,155,217.5,-227.5,-227.5,,217.5,610,SBD
1,Dustin Pruitt,M,1992-11-20,28,USA,NC,Wraps,MPF-U,86,90,237.5,257.5,267.5,,267.5,140,150,-157.5,,150,192.5,215,227.5,,227.5,645,SBD
1,Givi Margvelashvili,M,1991-05-08,30,USA,NY,Wraps,O-T,73.5,75,120,140,160,,160,90,105,110,,110,140,170,200,,200,470,SBD
1,Michael Edwards #1,M,1972-04-04,49,USA,SC,Wraps,O-T,89.4,90,247.5,267.5,-282.5,,267.5,140,147.5,150,,150,275,295,-305,,295,712.5,SBD
1,John Butler,M,1977-12-10,43,USA,NC,Wraps,O-T,125.14,140,242.5,255,267.5,,267.5,160,-175,-175,,160,270,280,290,,290,717.5,SBD
1,Dylan Osborne,M,1999-01-30,22,USA,SC,Wraps,O-U,73.6,75,215,-227.5,227.5,,227.5,127.5,135,137.5,140,137.5,215,232.5,240,242.5,240,605,SBD
1,Dustin Pruitt,M,1992-11-20,28,USA,NC,Wraps,O-U,86,90,237.5,257.5,267.5,,267.5,140,150,-157.5,,150,192.5,215,227.5,,227.5,645,SBD
1,Jason Legrand,M,1993-05-18,28,USA,GA,Wraps,O-U,107.5,110,335,,-350,,335,175,187.5,,,187.5,330,345,360,,360,882.5,SBD
1,Matthew Joines,M,2003-09-12,18,USA,NC,Wraps,T3-X,69.67,75,107.5,117.5,137.5,-145,137.5,87.5,92.5,95,,95,147.5,170,185,,185,417.5,SBD
1,Cameron Wilson,M,,18,USA,NC,Single-ply,T3-X,88.2,90,185,207.5,215,227.5,215,92.5,102.5,-107.5,,102.5,205,215,227.5,-237.5,227.5,545,SBD
2,Judah Hill,M,2002-10-22,18,USA,KY,Unlimited,T3-X,83.6,90,170,200,-210,,200,97.5,-110,-110,,97.5,170,180,202.5,,202.5,500,SBD
1,Christopher Young #1,M,1981-04-28,40,USA,GA,Unlimited,M1-T,132.5,140,385,410,,,410,-250,-250,250,,250,250,275,-287.5,,275,935,SBD
1,Christopher Young #1,M,1981-04-28,40,USA,GA,Unlimited,MPF-T,132.5,140,385,410,,,410,-250,-250,250,,250,250,275,-287.5,,275,935,SBD
1,Blake Stanley,M,1992-04-01,29,USA,NC,Unlimited,O-T,114.1,125,300,330,,,330,215,-227.5,-227.5,,215,-227.5,227.5,,,227.5,772.5,SBD
1,Christopher Young #1,M,1981-04-28,40,USA,GA,Unlimited,O-T,132.5,140,385,410,,,410,-250,-250,250,,250,250,275,-287.5,,275,935,SBD
1,Jordan Fender,M,1994-02-16,27,USA,NC,Unlimited,O-U,92.2,100,365,-410,410,,410,257.5,292.5,320,,320,272.5,300,-315,,300,1030,SBD
1,Dillon Ledford,M,1994-09-23,27,USA,NC,Unlimited,O-U,103.5,110,340,355,362.5,,362.5,155,240,252.5,,252.5,282.5,292.5,,,292.5,907.5,SBD
1,Nathan Hardy,M,1988-06-16,33,USA,NC,Unlimited,O-U,119.3,125,397.5,440,455,,455,312.5,337.5,-365,,337.5,267.5,295,-320,,295,1087.5,SBD
1,David Rainwater,M,1973-02-24,48,USA,SC,Raw,M2-T,140.3,140+,,,,,,182.5,187.5,-195,,187.5,190,200,-205,,200,387.5,BD
1,Duke Dudley,M,1961-03-15,60,USA,VA,Raw,M5-T,107,110,,,,,,110,120,127.5,-130,127.5,170,187.5,-197.5,,187.5,315,BD
1,Charles Wright,M,1953-02-24,68,USA,NC,Raw,M6-T,99.8,100,,,,,,132.5,-137.5,-142.5,,132.5,112.5,137.5,-150,,137.5,270,BD
1,Nathan Crawford,M,1965-09-22,56,USA,,Raw,M4-T,88.3,90,,,,,,75,-80,-80,,75,165,-172.5,-172.5,,165,240,BD
1,Jeff Guller,M,1941-08-01,80,USA,NC,Single-ply,M9-T,80.9,82.5,,,,,,87.5,-92.5,92.5,,92.5,-117.5,117.5,,,117.5,210,BD
1,Blake Stanley,M,1992-04-01,29,USA,NC,Unlimited,O-T,114.1,125,,,,,,215,-227.5,-227.5,,215,-227.5,227.5,,,227.5,442.5,BD
1,Rocco-Thomas Larocco,M,1978-04-25,43,USA,VA,Wraps,M1-U,81.4,82.5,217.5,230,237.5,,237.5,,,,,,,,,,,237.5,S
1,Nathan Crawford,M,1965-09-22,56,USA,,Wraps,M4-T,88.3,90,120,-127.5,132.5,,132.5,,,,,,,,,,,132.5,S
1,Rocco-Thomas Larocco,M,1978-04-25,43,USA,VA,Wraps,MPF-U,81.4,82.5,217.5,230,237.5,,237.5,,,,,,,,,,,237.5,S
1,Blake Stanley,M,1992-04-01,29,USA,NC,Unlimited,O-T,114.1,125,300,330,,,330,,,,,,,,,,,330,S
1,Mark Holbrook,M,1970-11-11,50,USA,NC,Raw,M3-U,106.5,110,,,,,,210,227.5,,,227.5,,,,,,227.5,B
1,Tim Metcalf,M,1961-02-07,60,USA,NC,Raw,M5-T,81.4,82.5,,,,,,100,-102.5,-102.5,,100,,,,,,100,B
1,Duke Dudley,M,1961-03-15,60,USA,VA,Raw,M5-T,107,110,,,,,,110,120,127.5,-130,127.5,,,,,,127.5,B
1,Louis Bachelor,M,1985-08-03,36,USA,NC,Raw,MPF-T,87.2,90,,,,,,160,170,-175,,170,,,,,,170,B
1,Trevor Blanchard,M,1997-07-02,24,USA,NC,Raw,O-T,88.4,90,,,,,,142.5,152.5,-160,,152.5,,,,,,152.5,B
1,Andrew Letterman,M,1984-01-24,37,USA,NC,Raw,O-T,105.4,110,,,,,,147.5,155,-162.5,,155,,,,,,155,B
1,Moses Cotowia,M,,29,USA,NC,Raw,O-T,121.4,125,,,,,,182.5,-192.5,-195,,182.5,,,,,,182.5,B
1,Lakendrick Powers,M,1986-07-09,35,USA,NC,Raw,O-T,165,140+,,,,,,160,165,-170,,165,,,,,,165,B
1,Zack Viers,M,1997-03-06,24,USA,NC,Raw,O-U,82.6,90,,,,,,192.5,-205,-205,,192.5,,,,,,192.5,B
1,LB Bullins,M,1984-06-20,37,USA,NC,Raw,O-U,100,100,,,,,,205,-217.5,,,205,,,,,,205,B
1,Louis Bachelor,M,1985-08-03,36,USA,NC,Raw,S-T,87.2,90,,,,,,160,170,-175,,170,,,,,,170,B
1,Andrew Letterman,M,1984-01-24,37,USA,NC,Raw,S-T,105.4,110,,,,,,147.5,155,-162.5,,155,,,,,,155,B
1,LB Bullins,M,1984-06-20,37,USA,NC,Raw,S-U,100,100,,,,,,205,-217.5,,,205,,,,,,205,B
1,Thomas LaRocco,M,1978-04-25,43,USA,VA,Raw,M1-U,81.4,82.5,,,,,,145,152.5,155,,155,,,,,,155,B
1,Thomas LaRocco,M,1978-04-25,43,USA,VA,Raw,MPF-U,81.4,82.5,,,,,,145,152.5,155,,155,,,,,,155,B
1,Duncan Hundley,M,1998-12-09,22,USA,TN,Single-ply,J-T,131.6,140,,,,,,397.5,420,-455,,420,,,,,,420,B
1,Drew Cullum,M,1960-06-03,61,USA,TN,Single-ply,M5-U,114.7,125,,,,,,182.5,-190,-190,,182.5,,,,,,182.5,B
1,Jeff Guller,M,1941-08-01,80,USA,NC,Single-ply,M9-T,80.9,82.5,,,,,,87.5,-92.5,92.5,,92.5,,,,,,92.5,B
1,Jeff Guller,M,1941-08-01,80,USA,NC,Single-ply,O-T,80.9,82.5,,,,,,87.5,-92.5,92.5,,92.5,,,,,,92.5,B
1,Duncan Hundley,M,1998-12-09,22,USA,TN,Single-ply,O-T,131.6,140,,,,,,397.5,420,-455,,420,,,,,,420,B
1,Rich Stanley,M,1998-10-03,23,USA,VA,Unlimited,J-U,143.1,140+,,,,,,260,275,-287.5,,275,,,,,,275,B
1,Chris Williamson,M,1977-02-16,44,USA,NC,Unlimited,M1-U,79.1,82.5,,,,,,-265,275,-285,,275,,,,,,275,B
1,Doug Smithey,M,,47,USA,NC,Unlimited,M2-U,124.6,125,,,,,,415,-455,-455,,415,,,,,,415,B
1,Richie Anderson,M,1971-07-11,50,USA,NC,Unlimited,M3-U,102.2,110,,,,,,260,-285,-285,,260,,,,,,260,B
1,Chris Williamson,M,1977-02-16,44,USA,NC,Unlimited,MPF-U,79.1,82.5,,,,,,-265,275,-285,,275,,,,,,275,B
1,Blake Stanley,M,1992-04-01,29,USA,NC,Unlimited,O-T,114.1,125,,,,,,215,-227.5,-227.5,,215,,,,,,215,B
1,Chris Williamson,M,1977-02-16,44,USA,NC,Unlimited,O-U,79.1,82.5,,,,,,-265,275,-285,,275,,,,,,275,B
1,Paul Lauffer,M,1974-11-14,46,USA,NC,Unlimited,O-U,103.5,110,,,,,,-300,-310,310,,310,,,,,,310,B
1,Doug Smithey,M,,47,USA,NC,Unlimited,O-U,124.6,125,,,,,,415,-455,-455,,415,,,,,,415,B
DQ,Stephen Lane #1,M,1988-02-25,33,USA,SC,Unlimited,O-U,123.6,125,,,,,,-395,-395,-410,,,,,,,,,B
1,Tim Metcalf,M,1961-02-07,60,USA,NC,Raw,M5-T,81.4,82.5,,,,,,,,,,,125,135,140,,140,140,D
1,Duke Dudley,M,1961-03-15,60,USA,VA,Raw,M5-T,107,110,,,,,,,,,,,170,187.5,-197.5,,187.5,187.5,D
1,Thomas LaRocco,M,1978-04-25,43,USA,VA,Raw,M1-U,81.4,82.5,,,,,,,,,,,217.5,-227.5,-227.5,,217.5,217.5,D
1,Nathan Crawford-Dl,M,1965-09-22,56,USA,,Raw,M4-T,88.2,90,,,,,,,,,,,165,-172.5,-172.5,,165,165,D
1,Thomas LaRocco,M,1978-04-25,43,USA,VA,Raw,MPF-U,81.4,82.5,,,,,,,,,,,217.5,-227.5,-227.5,,217.5,217.5,D
1,Jeff Guller,M,1941-08-01,80,USA,NC,Single-ply,M9-T,80.9,82.5,,,,,,,,,,,-117.5,117.5,,,117.5,117.5,D
1,Blake Stanley,M,1992-04-01,29,USA,NC,Unlimited,O-T,114.1,125,,,,,,,,,,,-227.5,227.5,,,227.5,227.5,D
