Division,WeightClassKg,Place,Name,Team,BodyweightKg,Best3SquatKg,Best3BenchKg,Best3DeadliftKg,TotalKg,Equipment,Event,Sex,BirthDate
Boys,55.79,1,Diego Mendoza,Devine,55.2,149.69,65.77,140.61,356.07,Single-ply,SBD,M,
Boys,55.79,2,Isreal Andrade,Lytle,54.93,113.4,72.57,142.88,328.85,Single-ply,SBD,M,
Boys,55.79,3,Grant Griffin,San Antonio Southwest,55.66,120.2,70.31,124.74,315.25,Single-ply,SBD,M,
Boys,55.79,DQ,Joseph Salazar,Cotulla,55.79,,,,,Single-ply,SBD,M,
Boys,59.87,1,Alex Garcia #2,Cotulla,57.92,195.04,115.67,183.7,494.42,Single-ply,SBD,M,
Boys,59.87,2,Jose Gonzalez #10,Cotulla,58.88,156.49,86.18,172.37,415.04,Single-ply,SBD,M,
Boys,59.87,3,Zachary Alvarez,Uvalde,59.24,138.35,92.99,142.88,374.21,Single-ply,SBD,M,
Boys,59.87,4,Devin McDole,Natalia,57.61,102.06,56.7,138.35,297.1,Single-ply,SBD,M,
Boys,67.13,1,Jacob Garcia,Cotulla,67.13,226.8,142.88,195.04,564.72,Single-ply,SBD,M,
Boys,67.13,2,Joshua Bazan,Castroville Medina Valley,66.5,226.8,124.74,210.92,562.45,Single-ply,SBD,M,
Boys,67.13,3,Seth DeLeon,Devine,65.82,172.37,122.47,185.97,480.81,Single-ply,SBD,M,
Boys,67.13,4,Jerry Martinez,Uvalde,65.82,174.63,95.25,183.7,453.59,Single-ply,SBD,M,
Boys,67.13,5,Luke Estrada,Lytle,66.13,161.03,97.52,176.9,435.45,Single-ply,SBD,M,
Boys,67.13,6,Amadeus Trejo-Perez,Lytle,63.64,163.29,90.72,142.88,396.89,Single-ply,SBD,M,
Boys,74.84,1,Eric Hernandez,Devine,74.57,247.21,145.15,251.74,644.1,Single-ply,SBD,M,
Boys,74.84,2,Jonavyn Gonzalez,Dilley,71.62,201.85,102.06,204.12,508.02,Single-ply,SBD,M,
Boys,74.84,3,Sasar Garcia,Cotulla,74.21,183.7,122.47,199.58,505.76,Single-ply,SBD,M,
Boys,74.84,4,Marcus Ramos,Natalia,74.84,151.95,74.84,183.7,410.5,Single-ply,SBD,M,
Boys,74.84,5,Jaysen Ramirez,Devine,69.58,161.03,74.84,154.22,390.09,Single-ply,SBD,M,
Boys,74.84,6,Reagan Gonzalez,San Antonio Southwest,70.49,142.88,81.65,149.69,374.21,Single-ply,SBD,M,
Boys,74.84,DQ,Deuce Cano,Dilley,73.8,,,,,Single-ply,SBD,M,
Boys,74.84,DQ,David Arreguin,Lytle,73.71,165.56,113.4,,,Single-ply,SBD,M,
Boys,74.84,DQ,Patrick Jass,Castroville Medina Valley,73.07,,,,,Single-ply,SBD,M,
Boys,74.84,DQ,Taylor Garcia,Uvalde,74.21,,,,,Single-ply,SBD,M,
Boys,82.1,1,Jason Vega,Lytle,81.74,249.48,145.15,235.87,630.49,Single-ply,SBD,M,
Boys,82.1,2,Robert Olivarez,Uvalde,81.47,204.12,145.15,201.85,551.11,Single-ply,SBD,M,
Boys,82.1,3,Jacob Guajardo,Devine,81.56,185.97,127.01,176.9,489.88,Single-ply,SBD,M,
Boys,82.1,4,Quentin Elizondo,Dilley,79.15,113.4,97.52,124.74,335.66,Single-ply,SBD,M,
Boys,82.1,DQ,Joshua Rath,Castroville Medina Valley,76.16,158.76,,,,Single-ply,SBD,M,
Boys,82.1,DQ,Richard Gonzalez,Castroville Medina Valley,80.01,,,,,Single-ply,SBD,M,
Boys,82.1,DQ,Hudson McKendrick,San Antonio Southwest,82.1,,,,,Single-ply,SBD,M,
Boys,89.81,1,Gaylen Garcia,Natalia,89.81,283.5,158.76,256.28,698.53,Single-ply,SBD,M,
Boys,89.81,2,Augie Aviles,Uvalde,88.41,224.53,140.61,195.04,560.19,Single-ply,SBD,M,
Boys,89.81,3,Nathan Villegas,Castroville Medina Valley,87.68,210.92,127.01,195.04,532.97,Single-ply,SBD,M,
Boys,89.81,4,Layne Schuchart,Castroville Medina Valley,86.45,170.1,106.59,201.85,478.54,Single-ply,SBD,M,
Boys,89.81,5,Brady Forman,Castroville Medina Valley,83.69,158.76,115.67,179.17,453.59,Single-ply,SBD,M,
Boys,89.81,6,Maddox Casares,Dilley,87.04,163.29,106.59,158.76,428.64,Single-ply,SBD,M,
Boys,89.81,7,Taylor Massey,Uvalde,87.04,142.88,95.25,154.22,392.36,Single-ply,SBD,M,
Boys,89.81,8,Isaiah Salas,San Antonio Southwest,83.6,102.06,79.38,133.81,315.25,Single-ply,SBD,M,
Boys,89.81,DQ,Zach Martinez,Devine,89.04,,,,,Single-ply,SBD,M,
Boys,89.81,DQ,Rafael Estala,Devine,87.45,195.04,127.01,,,Single-ply,SBD,M,
Boys,89.81,DQ,Hector Bernal,Devine,86.95,,,,,Single-ply,SBD,M,
Boys,89.81,DQ,Mario Diaz,Lytle,89.54,,,,,Single-ply,SBD,M,
Boys,99.79,1,Vicente Correa,Dilley,94.98,244.94,138.35,226.8,610.08,Single-ply,SBD,M,
Boys,99.79,2,Blake Chessher,San Antonio Southwest,95.21,219.99,124.74,240.4,585.13,Single-ply,SBD,M,
Boys,99.79,3,Gavyn Aguire,Castroville Medina Valley,96.21,224.53,154.22,206.38,585.13,Single-ply,SBD,M,
Boys,99.79,4,Rudy Velasquez,Cotulla,91.17,204.12,138.35,226.8,569.26,Single-ply,SBD,M,
Boys,99.79,5,Luis Buentello,Natalia,95.16,226.8,124.74,215.46,566.99,Single-ply,SBD,M,
Boys,99.79,6,Tristan Dennie,San Antonio Southwest,91.17,226.8,117.93,172.37,517.1,Single-ply,SBD,M,
Boys,99.79,7,Robert Ayala,Cotulla,97.35,204.12,120.2,192.78,517.1,Single-ply,SBD,M,
Boys,99.79,8,Vincent Fedorick,San Antonio Southwest,97.61,188.24,127.01,190.51,505.76,Single-ply,SBD,M,
Boys,99.79,9,Tony Silva,Dilley,95.62,188.24,120.2,183.7,492.15,Single-ply,SBD,M,
Boys,99.79,10,Sean Sanchez,Natalia,94.71,195.04,104.33,161.03,460.4,Single-ply,SBD,M,
Boys,99.79,11,Samuel Diaz,Devine,95.53,174.63,83.91,147.42,405.97,Single-ply,SBD,M,
Boys,99.79,12,Santana Ayala,Castroville Medina Valley,91.81,172.37,88.45,140.61,401.43,Single-ply,SBD,M,
Boys,99.79,13,Adam Guerrero #3,Devine,90.67,124.74,83.91,136.08,344.73,Single-ply,SBD,M,
Boys,99.79,DQ,Austin Dubose,Lytle,99.79,,,,,Single-ply,SBD,M,
Boys,99.79,DQ,Lionel Martinez,Dilley,98.34,,,,,Single-ply,SBD,M,
Boys,99.79,DQ,Joseph Painter,Comal Canyon,97.98,242.67,151.95,,,Single-ply,SBD,M,
Boys,109.77,1,Adrian Carrazco,Dilley,109.45,222.26,165.56,215.46,603.28,Single-ply,SBD,M,
Boys,109.77,2,Adrien Perales,Cotulla,107.86,272.16,142.88,179.17,594.21,Single-ply,SBD,M,
Boys,109.77,3,Malaki Lara,Uvalde,109.09,215.46,136.08,188.24,539.77,Single-ply,SBD,M,
Boys,109.77,4,Joaquin Castillo,Lytle,108.23,174.63,124.74,161.03,460.4,Single-ply,SBD,M,
Boys,109.77,5,Christian Nevarez,Castroville Medina Valley,102.1,172.37,108.86,156.49,437.72,Single-ply,SBD,M,
Boys,109.77,DQ,Max Pedroza,Devine,100.43,,,,,Single-ply,SBD,M,
Boys,124.74,1,Aaron Graves,Uvalde,120.02,231.33,154.22,210.92,596.47,Single-ply,SBD,M,
Boys,124.74,2,Rylan Diaz,Uvalde,115.85,238.14,124.74,210.92,573.79,Single-ply,SBD,M,
Boys,124.74,3,Michael Leaming,San Antonio Southwest,123.33,224.53,133.81,192.78,551.11,Single-ply,SBD,M,
Boys,124.74,4,Xavier Laque,Natalia,124.38,208.65,108.86,224.53,542.04,Single-ply,SBD,M,
Boys,124.74,5,Jon Burns,Castroville Medina Valley,118.02,192.78,129.27,190.51,512.56,Single-ply,SBD,M,
Boys,124.74,DQ,Robert Sanchez,Cotulla,124.74,,,,,Single-ply,SBD,M,
Boys,124.74,DQ,Raul Molina,Dilley,124.74,,,,,Single-ply,SBD,M,
Boys,139.71,1,Adam Delgado,San Antonio Southwest,132,238.14,124.74,249.48,612.35,Single-ply,SBD,M,
Boys,139.71+,1,Dustin Cruz,Natalia,143.47,249.48,129.27,249.48,628.23,Single-ply,SBD,M,
Boys,139.71+,2,Victor Moreno,Cotulla,157.31,215.46,133.81,219.99,569.26,Single-ply,SBD,M,
Boys,139.71+,3,Alex Alvarez #2,Dilley,147.15,117.93,83.91,124.74,326.59,Single-ply,SBD,M,
Boys,139.71+,DQ,Jacob Delaney,Devine,147.15,195.04,136.08,,,Single-ply,SBD,M,
