Division,WeightClassKg,Place,Name,Team,BodyweightKg,Best3SquatKg,Best3BenchKg,Best3DeadliftKg,TotalKg,Equipment,Event,Sex,BirthDate
Junior Varsity,51.71,1,Jase Stevens,Kirbyville,48.08,86.18,43.09,99.79,229.06,Single-ply,SBD,M,
Junior Varsity,67.13,1,Alex Butler #3,Kirbyville,61.69,113.4,83.91,127.01,324.32,Single-ply,SBD,M,
Junior Varsity,67.13,2,Trevough Simmons,Jasper,63.05,115.67,72.57,124.74,312.98,Single-ply,SBD,M,
Junior Varsity,67.13,3,T. Porter,Jasper,63.5,115.67,68.04,124.74,308.44,Single-ply,SBD,M,
Junior Varsity,67.13,4,Ethan Hutson,Newton,61.69,88.45,52.16,142.88,283.5,Single-ply,SBD,M,
Junior Varsity,67.13,5,Keylyn Reed,Newton,63.5,92.99,61.23,120.2,274.42,Single-ply,SBD,M,
Junior Varsity,74.84,1,Clinton Foster,Newton,71.67,145.15,81.65,149.69,376.48,Single-ply,SBD,M,
Junior Varsity,74.84,2,Jatarius Hanks,Newton,69.85,117.93,90.72,161.03,369.68,Single-ply,SBD,M,
Junior Varsity,74.84,3,Xavier Smith,Newton,73.94,124.74,63.5,154.22,342.46,Single-ply,SBD,M,
Junior Varsity,82.1,1,Gage Meyer,Newton,77.11,127.01,72.57,151.95,351.53,Single-ply,SBD,M,
Junior Varsity,82.1,2,Jayden Sims,Kirbyville,80.29,79.38,52.16,95.25,226.8,Single-ply,SBD,M,
Junior Varsity,89.81,1,Dyllen Brown,Kirbyville,83.91,106.59,77.11,142.88,326.59,Single-ply,SBD,M,
Junior Varsity,99.79,1,Brayden Ludd,Newton,99.34,145.15,83.91,158.76,387.82,Single-ply,SBD,M,
Junior Varsity,99.79,2,Bryce Hancock,Jasper,95.71,113.4,92.99,145.15,351.53,Single-ply,SBD,M,
Junior Varsity,99.79,3,Hunter Hargrave,Jasper,96.62,102.06,52.16,120.2,274.42,Single-ply,SBD,M,
Junior Varsity,109.77,1,Antrevion Gatson,Newton,108.41,183.7,102.06,190.51,476.27,Single-ply,SBD,M,
Junior Varsity,124.74,1,Dizarion Floyd,Jasper,121.56,102.06,88.45,142.88,333.39,Single-ply,SBD,M,
Junior Varsity,139.71,1,Jared Schmidt,Newton,132.9,154.22,102.06,156.49,412.77,Single-ply,SBD,M,
Junior Varsity,139.71+,1,Elijah Warren,Jasper,140.61,111.13,99.79,170.1,381.02,Single-ply,SBD,M,
Junior Varsity,139.71+,2,Chris Phifer,Newton,150.59,142.88,77.11,142.88,362.87,Single-ply,SBD,M,
Boys,51.71,1,Kam Wright,Jasper,50.8,102.06,61.23,124.74,288.03,Single-ply,SBD,M,
Boys,59.87,1,Kierstin Danna,Kirbyville,57.61,149.69,104.33,147.42,401.43,Single-ply,SBD,M,
Boys,67.13,1,Donaldo Anastacio,Kirbyville,65.32,151.95,92.99,154.22,399.16,Single-ply,SBD,M,
Boys,67.13,2,Blade Siau,Newton,65.77,124.74,92.99,161.03,378.75,Single-ply,SBD,M,
Boys,67.13,3,Jace Gore,Kirbyville,62.14,129.27,86.18,140.61,356.07,Single-ply,SBD,M,
Boys,67.13,4,Jacovian Adams,Jasper,63.5,115.67,79.38,151.95,347,Single-ply,SBD,M,
Boys,67.13,5,Colton Hinds,Kirbyville,66.22,124.74,65.77,138.35,328.85,Single-ply,SBD,M,
Boys,67.13,DQ,Tylee Adams,Jasper,65.77,,,,,Single-ply,SBD,M,
Boys,67.13,DQ,Maliek Woods,Newton,67.13,,,,,Single-ply,SBD,M,
Boys,74.84,1,Marcus Parnell,Jasper,70.76,165.56,124.74,174.63,464.93,Single-ply,SBD,M,
Boys,74.84,2,Reese Obannion,Kirbyville,73.48,151.95,88.45,170.1,410.5,Single-ply,SBD,M,
Boys,74.84,3,Jatavian Thomas,Jasper,73.48,147.42,90.72,170.1,408.23,Single-ply,SBD,M,
Boys,74.84,4,Creshawn Larkin,Jasper,69.4,142.88,88.45,170.1,401.43,Single-ply,SBD,M,
Boys,82.1,1,Jaden Hunter,Newton,82.1,165.56,90.72,163.29,419.57,Single-ply,SBD,M,
Boys,89.81,1,Taylon Alfred,Kirbyville,84.37,222.26,113.4,233.6,569.26,Single-ply,SBD,M,
Boys,89.81,2,Jonathan Kennebrew,Newton,89.81,183.7,111.13,231.33,526.17,Single-ply,SBD,M,
Boys,89.81,3,Leighton Foster,Newton,89.81,183.7,102.06,204.12,489.88,Single-ply,SBD,M,
Boys,89.81,4,Brayden Mahathay,Kirbyville,83.01,158.76,108.86,206.38,474,Single-ply,SBD,M,
Boys,89.81,5,Jacob Kelley,Kirbyville,83.91,172.37,113.4,183.7,469.47,Single-ply,SBD,M,
Boys,99.79,1,Sam Justice,Jasper,97.07,161.03,120.2,156.49,437.72,Single-ply,SBD,M,
Boys,99.79,2,Ethan Dunman,Jasper,94.35,124.74,86.18,151.95,362.87,Single-ply,SBD,M,
Boys,99.79,DQ,Ja'Marion Hanks,Newton,92.99,,,,,Single-ply,SBD,M,
Boys,109.77,1,Mike Smith,Kirbyville,106.59,149.69,117.93,158.76,426.38,Single-ply,SBD,M,
Boys,124.74,1,Jarron Roden,Kirbyville,115.21,181.44,138.35,199.58,519.36,Single-ply,SBD,M,
Boys,124.74,2,Noah Nava,Newton,116.12,165.56,129.27,195.04,489.88,Single-ply,SBD,M,
Boys,124.74,3,Ethan Lott,Newton,121.11,158.76,102.06,183.7,444.52,Single-ply,SBD,M,
Boys,139.71,1,Bryson Mansfield,Newton,129.73,213.19,120.2,226.8,560.19,Single-ply,SBD,M,
Boys,139.71,2,Emmanuel Hernandez #4,Newton,130.63,195.04,124.74,190.51,510.29,Single-ply,SBD,M,
Boys,139.71,3,Hunter Williams,Newton,130.63,190.51,124.74,183.7,498.95,Single-ply,SBD,M,
Boys,139.71+,1,J'Kwon Brumley,Kirbyville,143.34,254.01,142.88,235.87,632.76,Single-ply,SBD,M,
