Name,Place,Division,Sex,Equipment,State,WeightClassKg,BodyweightKg,Age,Best3SquatKg,Squat4Kg,Best3BenchKg,Bench4Kg,Best3DeadliftKg,Deadlift4Kg,TotalKg,Event
Alicia Mahoe,1,Juniors 13-15,F,Raw,HI,44,41.46,13,55,,32.5,,67.5,,155,SBD
Stacia-Al Mahoe,1,Juniors 16-17,F,Raw,HI,48,47.36,17,95,100,60,65,127.5,132.5,282.5,SBD
Jessica Okimura,1,Juniors 20-23,F,Raw,HI,48,47.72,23,85,,62.5,,125,,272.5,SBD
Anika Mejia,2,Juniors 20-23,F,Raw,HI,48,46.81,20,87.5,,37.5,,135,,260,SBD
Kristen Bareng,1,Juniors 13-15,F,Raw,HI,52,51.98,14,75.5,,37.5,,95,,208,SBD
Allie Mahoe,2,Juniors 13-15,F,Raw,HI,52,51.71,15,77.5,,42.5,,85,,205,SBD
Erin Zenker,1,Juniors 20-23,F,Raw,HI,67.5,60.24,22,117.5,,72.5,,142.5,,332.5,SBD
Lily Rodgers,1,Juniors 13-15,F,Raw,HI,82.5,80.29,14,92.5,,47.5,,110,,250,SBD
Jessica Sablan,1,Open,F,Raw,HI,52,51.71,28,92.5,,52.5,,112.5,,257.5,SBD
Jane Santoyo,1,Open,F,Raw,HI,56,54.34,29,87.5,,60,,132.5,,280,SBD
Alana Gamundoy,2,Open,F,Raw,HI,56,55.61,27,85,,52.5,,132.5,,270,SBD
Nichole Machado,3,Open,F,Raw,HI,56,55.79,33,85,,60,,122.5,,267.5,SBD
Rechelle Ancheta,1,Open,F,Raw,HI,60,58.6,27,82.5,,52.5,,100,,235,SBD
Erin Zenker,1,Open,F,Raw,HI,67.5,60.24,22,117.5,,72.5,,142.5,,332.5,SBD
Stefanie Sweeney,2,Open,F,Raw,HI,67.5,64.86,27,105,,52.5,,132.5,,290,SBD
Latosha Floyd,1,Open,F,Raw,HI,75,74.39,33,145,,87.5,,190,,422.5,SBD
Lei Nanoe,2,Open,F,Raw,HI,75,73.48,30,107.5,,65,,162.5,,335,SBD
Meghan Ellis,3,Open,F,Raw,HI,75,71.67,28,107.5,,67.5,,145,,320,SBD
Michele Wright,4,Open,F,Raw,HI,75,71.94,32,92.5,,57.5,,127.5,,277.5,SBD
Sarah Shotwell,5,Open,F,Raw,HI,75,74.39,24,60,,60,,142.5,,262.5,SBD
Randie Lee,1,Open,F,Raw,HI,82.5,80.29,28,155,,87.5,,170,,412.5,SBD
Lindsey Ryiz,2,Open,F,Raw,HI,82.5,77.93,29,135,,65,,180,,380,SBD
Poliala Lorenzo,1,Submasters 35-39,F,Raw,HI,67.5,65.68,38,60,,50,,107.5,,217.5,SBD
Luvi Agpaoa,1,Masters 45-49,F,Raw,HI,52,51.89,46,80,,45,,82.5,,207.5,SBD
Rome Stein,1,Masters 45-49,F,Raw,HI,67.5,67.13,46,108,110,62.5,,122.5,,293,SBD
Donnie Rodgers,1,Masters 40-44,F,Raw,HI,90,83.28,43,135,,70,,127.5,,332.5,SBD
Corey Cabanban,1,Juniors 13-15,M,Raw,HI,52,48.99,15,87.5,,55,,125.5,,268,SBD
Cody Cabanban,1,Juniors 16-17,M,Raw,HI,52,50.89,16,97.5,,55,,138,,290.5,SBD
William Relin,1,Juniors 20-23,M,Raw,HI,52,51.89,22,107.5,,70,,120,,297.5,SBD
Jayden Byrd,1,Juniors 13-15,M,Raw,HI,56,55.79,14,92.5,,60,,102.5,,255,SBD
Lawrence Nino,1,Juniors 16-17,M,Raw,HI,67.5,65.32,17,165,,115,,202.5,,482.5,SBD
Micah Kawaguchi,1,Juniors 20-23,M,Raw,HI,67.5,65.68,22,182.5,,130,,227.5,,540,SBD
Jonathan Iloreta,2,Juniors 20-23,M,Raw,HI,67.5,65.14,22,157.5,,107.5,,215,,480,SBD
Pakela Olanolan,3,Juniors 20-23,M,Raw,HI,67.5,66.41,20,155,,105,,202.5,,462.5,SBD
Raymond Boyer,4,Juniors 20-23,M,Raw,HI,67.5,66.13,21,155,,105,,182.5,,442.5,SBD
Braedan Leong,1,Juniors 16-17,M,Raw,HI,75,73.12,17,157.5,,100,,192.5,,450,SBD
Darrin Fernandez,1,Juniors 18-19,M,Raw,HI,75,73.48,19,155,,125,,207.5,,487.5,SBD
Rancen Quitasol,DQ,Juniors 18-19,M,Raw,HI,75,73.48,18,-165,,,,,,,SBD
Jamario Latter,1,Juniors 20-23,M,Raw,HI,75,74.48,23,165,,105,,200,,470,SBD
Premar Namnama,1,Juniors 20-23,M,Raw,HI,82.5,80.65,21,230,,160,,235,,625,SBD
Taylor Abordo,2,Juniors 20-23,M,Raw,HI,82.5,81.74,20,202.5,,132.5,,232.5,,567.5,SBD
Cody Takara,DQ,Juniors 20-23,M,Raw,HI,82.5,82.01,20,-192.5,,,,,,,SBD
Kama Moises,1,Juniors 20-23,M,Raw,HI,100,97.25,23,207.5,,147.5,,240,,595,SBD
Daniel Ku,1,Juniors 20-23,M,Raw,HI,110,102.97,20,152.5,,125,,215,,492.5,SBD
Henry Silva,1,Open,M,Raw,HI,67.5,66.59,28,170,,132.5,,197.5,,500,SBD
John Watkins,1,Open,M,Raw,HI,75,71.76,28,172.5,,152.5,,245,,570,SBD
Blake Parado,2,Open,M,Raw,HI,75,74.39,26,182.5,,115,,227.5,,525,SBD
Jasten Pascual,3,Open,M,Raw,HI,75,73.48,25,187.5,,77.5,,192.5,,457.5,SBD
David Alvarez,4,Open,M,Raw,HI,75,74.84,26,155,,105,,197.5,,457.5,SBD
Robert Hutchens,DQ,Open,M,Raw,HI,75,74.39,28,152.5,,120,,-210,,,SBD
Kevin Boudreau,1,Open,M,Raw,HI,82.5,81.19,28,152.5,,125,,207.5,,485,SBD
Nicholas Bastianelli,2,Open,M,Raw,HI,82.5,75.21,25,145,,102.5,,182.5,,430,SBD
Nicholas Reyes,1,Open,M,Raw,HI,90,88.45,32,220,,192.5,,250,,662.5,SBD
Chason Godwin,1,Open,M,Raw,HI,100,98.43,24,190,,130,,247.5,,567.5,SBD
Jason Hansel,2,Open,M,Raw,HI,100,93.17,35,157.5,,150,,207.5,,515,SBD
Noel Tanap,1,Open,M,Raw,HI,110,106.32,31,195,,142.5,,237.5,,575,SBD
Aaron Pono Moises,1,Open,M,Raw,HI,125,116.48,28,272.5,,197.5,,280,,750,SBD
Kawika Machado,1,Submasters 35-39,M,Raw,HI,82.5,82.01,36,150,,147.5,,190,,487.5,SBD
Jeff Luffman,1,Submasters 35-39,M,Raw,HI,110,109.77,39,227.5,,160,,285,,672.5,SBD
Alan-Paul Frank,1,Masters 40-44,M,Raw,HI,75,73.57,41,155,,155,,205,,515,SBD
Matthew Chapman #1,1,Masters 45-49,M,Raw,HI,75,74.12,46,157.5,,135,,170,,462.5,SBD
John Lozano,1,Masters 45-49,M,Raw,HI,100,99.97,47,142.5,,125,,145,,412.5,SBD
