Place,Name,Sex,BirthDate,Age,Country,State,Equipment,Division,BodyweightKg,WeightClassKg,Squat1Kg,Squat2Kg,Squat3Kg,Best3SquatKg,Bench1Kg,Bench2Kg,Bench3Kg,Best3BenchKg,Deadlift1Kg,Deadlift2Kg,Deadlift3Kg,Deadlift4Kg,Best3DeadliftKg,TotalKg,Event,Tested
1,Mackenzie Cranmer,F,2001-11-03,20,USA,MO,Raw,J20-23,58.9,60,62.5,70,75,75,30,-37.5,-37.5,30,75,80,-85,,80,185,SBD,Yes
1,Julia Hamilton #3,F,2001-06-20,20,USA,MO,Raw,J20-23,64.1,67.5,107.5,-112.5,117.5,117.5,60,-62.5,-62.5,60,125,130,137.5,,137.5,315,SBD,Yes
1,Raleigh Toussaint,F,1999-08-24,22,USA,MO,Raw,J20-23,79.1,82.5,110,115,122.5,122.5,57.5,60,62.5,62.5,130,140,147.5,,147.5,332.5,SBD,Yes
1,Jenni Schook,F,1982-02-05,40,USA,MO,Raw,M40-44,80.2,82.5,130,137.5,142.5,142.5,-82.5,82.5,90,90,155,165,-172.5,,165,397.5,SBD,Yes
1,Tracy Allison,F,1969-06-28,52,USA,MO,Raw,M50-54,75,75,70,77.5,87.5,87.5,57.5,60,-62.5,60,115,122.5,127.5,,127.5,275,SBD,Yes
1,Jennifer Wade,F,1967-01-14,55,USA,MO,Raw,M55-59,95.8,100,75,80,87.5,87.5,45,50,-52.5,50,115,120,127.5,,127.5,265,SBD,Yes
1,Julia Hamilton #3,F,2001-06-20,20,USA,MO,Raw,Open,64.1,67.5,107.5,-112.5,117.5,117.5,60,-62.5,-62.5,60,125,130,137.5,,137.5,315,SBD,Yes
2,Gloria Watson,F,1994-08-28,27,USA,MO,Raw,Open,61.4,67.5,92.5,-97.5,-97.5,92.5,55,57.5,60,60,120,125,-130,,125,277.5,SBD,Yes
1,Raleigh Toussaint,F,1999-08-24,22,USA,MO,Raw,Open,79.1,82.5,110,115,122.5,122.5,57.5,60,62.5,62.5,130,140,147.5,,147.5,332.5,SBD,Yes
2,Sara Schaefer,F,1995-08-15,26,USA,MO,Raw,Open,79.5,82.5,107.5,-125,125,125,62.5,70,-75,70,55,,,,55,250,SBD,Yes
1,Jennifer Wade,F,1967-01-14,55,USA,MO,Raw,Open,95.8,100,75,80,87.5,87.5,45,50,-52.5,50,115,120,127.5,,127.5,265,SBD,Yes
1,Leslie Naumann,F,,40,USA,MO,Wraps,M40-44,109.3,110,177.5,190,,190,-102.5,105,110,110,177.5,187.5,-200,,187.5,487.5,SBD,Yes
1,Leslie Naumann,F,,40,USA,MO,Wraps,Open,109.3,110,177.5,190,,190,-102.5,105,110,110,177.5,187.5,-200,,187.5,487.5,SBD,Yes
1,Zach Bowman,M,1999-12-10,22,USA,MO,Raw,J20-23,61.2,67.5,140,145,-150,145,95,-100,100,100,182.5,-187.5,187.5,,187.5,432.5,SBD,Yes
1,Shad Barham,M,,21,USA,MO,Raw,J20-23,79.7,82.5,210,217.5,227.5,227.5,-100,107.5,-122.5,107.5,162.5,182.5,-200,,182.5,517.5,SBD,Yes
1,Brayden Blakemore,M,1998-09-15,23,USA,MO,Raw,J20-23,106.8,110,220,232.5,242.5,242.5,120,127.5,-135,127.5,227.5,242.5,252.5,,252.5,622.5,SBD,Yes
2,Jamie Fetting,M,2001-09-18,20,USA,MO,Raw,J20-23,108.6,110,187.5,200,210,210,130,135,140,140,210,-222.5,227.5,,227.5,577.5,SBD,Yes
1,Achillies Griffin,M,1998-05-02,23,USA,MO,Raw,J20-23,124.4,125,220,232.5,-252.5,232.5,170,182.5,-187.5,182.5,207.5,230,240,,240,655,SBD,Yes
1,Seth Pendergrass,M,1981-08-25,40,USA,MO,Raw,M40-44,87.6,90,165,175,182.5,182.5,100,105,-110,105,252.5,265,272.5,,272.5,560,SBD,Yes
1,Brad Dodds,M,1968-01-22,54,USA,MO,Raw,M50-54,86.8,90,-182.5,182.5,185,185,127.5,-135,-135,127.5,225,230,232.5,,232.5,545,SBD,Yes
1,Zach Bowman,M,1999-12-10,22,USA,MO,Raw,Open,61.2,67.5,140,145,-150,145,95,-100,100,100,182.5,-187.5,187.5,,187.5,432.5,SBD,Yes
2,Jonathan Ronimous,M,1995-12-20,26,USA,MO,Raw,Open,66.5,67.5,122.5,-130,130,130,92.5,-97.5,-97.5,92.5,175,182.5,187.5,,187.5,410,SBD,Yes
1,Kaelen Dowling,M,1997-11-12,24,USA,MO,Raw,Open,81,82.5,192.5,200,-210,200,120,127.5,-130,127.5,235,245,260,,260,587.5,SBD,Yes
DQ,Hunter Tapscott,M,2000-05-18,21,USA,IL,Raw,Open,77.8,82.5,170,-180,-180,170,-125,-125,-125,,170,,,,170,,SBD,Yes
1,Brad Dodds,M,1968-01-22,54,USA,MO,Raw,Open,86.8,90,-182.5,182.5,185,185,127.5,-135,-135,127.5,225,230,232.5,,232.5,545,SBD,Yes
2,Nathan Molle-Clark,M,1998-02-25,24,USA,MO,Raw,Open,89.5,90,160,177.5,190,190,110,-120,-120,110,212.5,222.5,227.5,,227.5,527.5,SBD,Yes
3,Will Mattingly,M,1988-10-07,33,USA,MO,Raw,Open,86.2,90,175,180,185,185,105,112.5,-120,112.5,192.5,197.5,205,,205,502.5,SBD,Yes
4,Zachary Lefever,M,1992-01-31,30,USA,MO,Raw,Open,86.5,90,115,125,130,130,75,82.5,-87.5,82.5,167.5,172.5,182.5,,182.5,395,SBD,Yes
1,Benton Brightwell,M,1999-11-23,22,USA,MO,Raw,Open,96.6,100,165,172.5,180,180,112.5,120,-125,120,205,220,-232.5,,220,520,SBD,Yes
DQ,Justin Redfering,M,1997-09-11,24,USA,MO,Raw,Open,99.9,100,227.5,232.5,,232.5,-160,-160,-160,,,,,,,,SBD,Yes
1,Henry Walde,M,1998-04-28,24,USA,MO,Raw,Open,109.3,110,210,230,242.5,242.5,135,145,-150,145,265,285,-287.5,,285,672.5,SBD,Yes
2,Christian Navarro #1,M,1995-02-23,27,USA,MO,Raw,Open,105.5,110,-152.5,152.5,160,160,102.5,110,-115,110,175,190,197.5,,197.5,467.5,SBD,Yes
DQ,Nicholas Dochterman,M,1990-06-17,31,USA,MO,Raw,Open,104,110,165,177.5,182.5,182.5,-125,-137.5,-137.5,,,,,,,,SBD,Yes
1,Andrew Lecrone,M,,33,USA,MO,Raw,Open,125.2,140,222.5,232.5,237.5,237.5,157.5,-167.5,-167.5,157.5,200,210,222.5,,222.5,617.5,SBD,Yes
1,Jason Lloyd,M,1988-03-26,34,USA,MO,Raw,Open,159.3,140+,330,355,365,365,197.5,215,227.5,227.5,240,260,272.5,,272.5,865,SBD,Yes
1,David Schook,M,2008-04-11,14,USA,MO,Raw,J14-16,48.9,52,60,70,77.5,77.5,35,40,45,45,85,95,105,-110,105,227.5,SBD,Yes
1,Logan Reinhart,M,2000-11-10,21,USA,MO,Wraps,J20-23,74.1,75,180,190,202.5,202.5,102.5,112.5,-130,112.5,180,192.5,-205,,192.5,507.5,SBD,Yes
1,Mandell Holmes,M,1992-05-02,29,USA,MO,Wraps,Open,157.8,140+,272.5,292.5,,292.5,215,-227.5,-227.5,215,285,-300,-300,,285,792.5,SBD,Yes
1,Tywrelle Pickens,M,1990-07-21,31,USA,MO,Raw,Open,85.4,90,,,,,92.5,105,-115,105,,,,,,105,B,Yes